%YAML 1.1
%TAG !u! tag:unity3d.com,2011:
--- !u!1 &8967551926106754639
GameObject:
  m_ObjectHideFlags: 0
  m_CorrespondingSourceObject: {fileID: 0}
  m_PrefabInstance: {fileID: 0}
  m_PrefabAsset: {fileID: 0}
  serializedVersion: 6
  m_Component:
  - component: {fileID: 8967551926106754626}
  - component: {fileID: 8967551926106754627}
  - component: {fileID: 8967551926106754636}
  - component: {fileID: 8967551926106754637}
  - component: {fileID: 8967551926106754638}
  m_Layer: 8
  m_Name: Stairs
  m_TagString: FLOOR
  m_Icon: {fileID: 0}
  m_NavMeshLayer: 0
  m_StaticEditorFlags: 0
  m_IsActive: 1
--- !u!4 &8967551926106754626
Transform:
  m_ObjectHideFlags: 0
  m_CorrespondingSourceObject: {fileID: 0}
  m_PrefabInstance: {fileID: 0}
  m_PrefabAsset: {fileID: 0}
  m_GameObject: {fileID: 8967551926106754639}
  m_LocalRotation: {x: -0, y: -0, z: -0, w: 1}
  m_LocalPosition: {x: -4.2349634, y: -1.9900001, z: 2.2171588}
  m_LocalScale: {x: 1, y: 1, z: 1}
  m_Children: []
  m_Father: {fileID: 0}
  m_RootOrder: 0
  m_LocalEulerAnglesHint: {x: 0, y: 0, z: 0}
--- !u!114 &8967551926106754627
MonoBehaviour:
  m_ObjectHideFlags: 0
  m_CorrespondingSourceObject: {fileID: 0}
  m_PrefabInstance: {fileID: 0}
  m_PrefabAsset: {fileID: 0}
  m_GameObject: {fileID: 8967551926106754639}
  m_Enabled: 1
  m_EditorHideFlags: 0
  m_Script: {fileID: 11500000, guid: 8233d90336aea43098adf6dbabd606a2, type: 3}
  m_Name: 
  m_EditorClassIdentifier: 
  m_MeshFormatVersion: 1
  m_Faces:
  - m_Indexes: 000000000100000002000000010000000300000002000000
    m_SmoothingGroup: 0
    m_Uv:
      m_UseWorldSpace: 0
      m_FlipU: 0
      m_FlipV: 0
      m_SwapUV: 0
      m_Fill: 1
      m_Scale: {x: 1, y: 1}
      m_Offset: {x: 0, y: 0}
      m_Rotation: 0
      m_Anchor: 9
    m_Material: {fileID: 2100000, guid: 31321ba15b8f8eb4c954353edc038b1d, type: 2}
    m_SubmeshIndex: 0
    m_ManualUV: 0
    elementGroup: 0
    m_TextureGroup: -1
  - m_Indexes: 040000000500000006000000050000000700000006000000
    m_SmoothingGroup: 0
    m_Uv:
      m_UseWorldSpace: 0
      m_FlipU: 0
      m_FlipV: 0
      m_SwapUV: 0
      m_Fill: 1
      m_Scale: {x: 1, y: 1}
      m_Offset: {x: 0, y: 0}
      m_Rotation: 0
      m_Anchor: 9
    m_Material: {fileID: 2100000, guid: 31321ba15b8f8eb4c954353edc038b1d, type: 2}
    m_SubmeshIndex: 0
    m_ManualUV: 0
    elementGroup: 0
    m_TextureGroup: -1
  - m_Indexes: 08000000090000000a000000090000000b0000000a000000
    m_SmoothingGroup: 0
    m_Uv:
      m_UseWorldSpace: 0
      m_FlipU: 0
      m_FlipV: 0
      m_SwapUV: 0
      m_Fill: 1
      m_Scale: {x: 1, y: 1}
      m_Offset: {x: 0, y: 0}
      m_Rotation: 0
      m_Anchor: 9
    m_Material: {fileID: 2100000, guid: 31321ba15b8f8eb4c954353edc038b1d, type: 2}
    m_SubmeshIndex: 0
    m_ManualUV: 0
    elementGroup: 0
    m_TextureGroup: -1
  - m_Indexes: 0c0000000d0000000e0000000d0000000f0000000e000000
    m_SmoothingGroup: 0
    m_Uv:
      m_UseWorldSpace: 0
      m_FlipU: 0
      m_FlipV: 0
      m_SwapUV: 0
      m_Fill: 1
      m_Scale: {x: 1, y: 1}
      m_Offset: {x: 0, y: 0}
      m_Rotation: 0
      m_Anchor: 9
    m_Material: {fileID: 2100000, guid: 31321ba15b8f8eb4c954353edc038b1d, type: 2}
    m_SubmeshIndex: 0
    m_ManualUV: 0
    elementGroup: 0
    m_TextureGroup: -1
  - m_Indexes: 100000001100000012000000110000001300000012000000
    m_SmoothingGroup: 0
    m_Uv:
      m_UseWorldSpace: 0
      m_FlipU: 0
      m_FlipV: 0
      m_SwapUV: 0
      m_Fill: 1
      m_Scale: {x: 1, y: 1}
      m_Offset: {x: 0, y: 0}
      m_Rotation: 0
      m_Anchor: 9
    m_Material: {fileID: 2100000, guid: 31321ba15b8f8eb4c954353edc038b1d, type: 2}
    m_SubmeshIndex: 0
    m_ManualUV: 0
    elementGroup: 0
    m_TextureGroup: -1
  - m_Indexes: 140000001500000016000000150000001700000016000000
    m_SmoothingGroup: 0
    m_Uv:
      m_UseWorldSpace: 0
      m_FlipU: 0
      m_FlipV: 0
      m_SwapUV: 0
      m_Fill: 1
      m_Scale: {x: 1, y: 1}
      m_Offset: {x: 0, y: 0}
      m_Rotation: 0
      m_Anchor: 9
    m_Material: {fileID: 2100000, guid: 31321ba15b8f8eb4c954353edc038b1d, type: 2}
    m_SubmeshIndex: 0
    m_ManualUV: 0
    elementGroup: 0
    m_TextureGroup: -1
  - m_Indexes: 18000000190000001a000000190000001b0000001a000000
    m_SmoothingGroup: 0
    m_Uv:
      m_UseWorldSpace: 0
      m_FlipU: 0
      m_FlipV: 0
      m_SwapUV: 0
      m_Fill: 1
      m_Scale: {x: 1, y: 1}
      m_Offset: {x: 0, y: 0}
      m_Rotation: 0
      m_Anchor: 9
    m_Material: {fileID: 2100000, guid: 31321ba15b8f8eb4c954353edc038b1d, type: 2}
    m_SubmeshIndex: 0
    m_ManualUV: 0
    elementGroup: 0
    m_TextureGroup: -1
  - m_Indexes: 1c0000001d0000001e0000001d0000001f0000001e000000
    m_SmoothingGroup: 0
    m_Uv:
      m_UseWorldSpace: 0
      m_FlipU: 0
      m_FlipV: 0
      m_SwapUV: 0
      m_Fill: 1
      m_Scale: {x: 1, y: 1}
      m_Offset: {x: 0, y: 0}
      m_Rotation: 0
      m_Anchor: 9
    m_Material: {fileID: 2100000, guid: 31321ba15b8f8eb4c954353edc038b1d, type: 2}
    m_SubmeshIndex: 0
    m_ManualUV: 0
    elementGroup: 0
    m_TextureGroup: -1
  - m_Indexes: 200000002100000022000000210000002300000022000000
    m_SmoothingGroup: 0
    m_Uv:
      m_UseWorldSpace: 0
      m_FlipU: 0
      m_FlipV: 0
      m_SwapUV: 0
      m_Fill: 1
      m_Scale: {x: 1, y: 1}
      m_Offset: {x: 0, y: 0}
      m_Rotation: 0
      m_Anchor: 9
    m_Material: {fileID: 2100000, guid: 31321ba15b8f8eb4c954353edc038b1d, type: 2}
    m_SubmeshIndex: 0
    m_ManualUV: 0
    elementGroup: 0
    m_TextureGroup: -1
  - m_Indexes: 240000002500000026000000250000002700000026000000
    m_SmoothingGroup: 0
    m_Uv:
      m_UseWorldSpace: 0
      m_FlipU: 0
      m_FlipV: 0
      m_SwapUV: 0
      m_Fill: 1
      m_Scale: {x: 1, y: 1}
      m_Offset: {x: 0, y: 0}
      m_Rotation: 0
      m_Anchor: 9
    m_Material: {fileID: 2100000, guid: 31321ba15b8f8eb4c954353edc038b1d, type: 2}
    m_SubmeshIndex: 0
    m_ManualUV: 0
    elementGroup: 0
    m_TextureGroup: -1
  - m_Indexes: 28000000290000002a000000290000002b0000002a000000
    m_SmoothingGroup: 0
    m_Uv:
      m_UseWorldSpace: 0
      m_FlipU: 0
      m_FlipV: 0
      m_SwapUV: 0
      m_Fill: 1
      m_Scale: {x: 1, y: 1}
      m_Offset: {x: 0, y: 0}
      m_Rotation: 0
      m_Anchor: 9
    m_Material: {fileID: 2100000, guid: 31321ba15b8f8eb4c954353edc038b1d, type: 2}
    m_SubmeshIndex: 0
    m_ManualUV: 0
    elementGroup: 0
    m_TextureGroup: -1
  - m_Indexes: 2c0000002d0000002e0000002d0000002f0000002e000000
    m_SmoothingGroup: 0
    m_Uv:
      m_UseWorldSpace: 0
      m_FlipU: 0
      m_FlipV: 0
      m_SwapUV: 0
      m_Fill: 1
      m_Scale: {x: 1, y: 1}
      m_Offset: {x: 0, y: 0}
      m_Rotation: 0
      m_Anchor: 9
    m_Material: {fileID: 2100000, guid: 31321ba15b8f8eb4c954353edc038b1d, type: 2}
    m_SubmeshIndex: 0
    m_ManualUV: 0
    elementGroup: 0
    m_TextureGroup: -1
  - m_Indexes: 300000003100000032000000310000003300000032000000
    m_SmoothingGroup: 0
    m_Uv:
      m_UseWorldSpace: 0
      m_FlipU: 0
      m_FlipV: 0
      m_SwapUV: 0
      m_Fill: 1
      m_Scale: {x: 1, y: 1}
      m_Offset: {x: 0, y: 0}
      m_Rotation: 0
      m_Anchor: 9
    m_Material: {fileID: 2100000, guid: 31321ba15b8f8eb4c954353edc038b1d, type: 2}
    m_SubmeshIndex: 0
    m_ManualUV: 0
    elementGroup: 0
    m_TextureGroup: -1
  - m_Indexes: 340000003500000036000000350000003700000036000000
    m_SmoothingGroup: 0
    m_Uv:
      m_UseWorldSpace: 0
      m_FlipU: 0
      m_FlipV: 0
      m_SwapUV: 0
      m_Fill: 1
      m_Scale: {x: 1, y: 1}
      m_Offset: {x: 0, y: 0}
      m_Rotation: 0
      m_Anchor: 9
    m_Material: {fileID: 2100000, guid: 31321ba15b8f8eb4c954353edc038b1d, type: 2}
    m_SubmeshIndex: 0
    m_ManualUV: 0
    elementGroup: 0
    m_TextureGroup: -1
  - m_Indexes: 38000000390000003a000000390000003b0000003a000000
    m_SmoothingGroup: 0
    m_Uv:
      m_UseWorldSpace: 0
      m_FlipU: 0
      m_FlipV: 0
      m_SwapUV: 0
      m_Fill: 1
      m_Scale: {x: 1, y: 1}
      m_Offset: {x: 0, y: 0}
      m_Rotation: 0
      m_Anchor: 9
    m_Material: {fileID: 2100000, guid: 31321ba15b8f8eb4c954353edc038b1d, type: 2}
    m_SubmeshIndex: 0
    m_ManualUV: 0
    elementGroup: 0
    m_TextureGroup: -1
  - m_Indexes: 3c0000003d0000003e0000003d0000003f0000003e000000
    m_SmoothingGroup: 0
    m_Uv:
      m_UseWorldSpace: 0
      m_FlipU: 0
      m_FlipV: 0
      m_SwapUV: 0
      m_Fill: 1
      m_Scale: {x: 1, y: 1}
      m_Offset: {x: 0, y: 0}
      m_Rotation: 0
      m_Anchor: 9
    m_Material: {fileID: 2100000, guid: 31321ba15b8f8eb4c954353edc038b1d, type: 2}
    m_SubmeshIndex: 0
    m_ManualUV: 0
    elementGroup: 0
    m_TextureGroup: -1
  - m_Indexes: 400000004100000042000000410000004300000042000000
    m_SmoothingGroup: 0
    m_Uv:
      m_UseWorldSpace: 0
      m_FlipU: 0
      m_FlipV: 0
      m_SwapUV: 0
      m_Fill: 1
      m_Scale: {x: 1, y: 1}
      m_Offset: {x: 0, y: 0}
      m_Rotation: 0
      m_Anchor: 9
    m_Material: {fileID: 2100000, guid: 31321ba15b8f8eb4c954353edc038b1d, type: 2}
    m_SubmeshIndex: 0
    m_ManualUV: 0
    elementGroup: 0
    m_TextureGroup: -1
  - m_Indexes: 440000004500000046000000450000004700000046000000
    m_SmoothingGroup: 0
    m_Uv:
      m_UseWorldSpace: 0
      m_FlipU: 0
      m_FlipV: 0
      m_SwapUV: 0
      m_Fill: 1
      m_Scale: {x: 1, y: 1}
      m_Offset: {x: 0, y: 0}
      m_Rotation: 0
      m_Anchor: 9
    m_Material: {fileID: 2100000, guid: 31321ba15b8f8eb4c954353edc038b1d, type: 2}
    m_SubmeshIndex: 0
    m_ManualUV: 0
    elementGroup: 0
    m_TextureGroup: -1
  - m_Indexes: 48000000490000004a000000490000004b0000004a000000
    m_SmoothingGroup: 0
    m_Uv:
      m_UseWorldSpace: 0
      m_FlipU: 0
      m_FlipV: 0
      m_SwapUV: 0
      m_Fill: 1
      m_Scale: {x: 1, y: 1}
      m_Offset: {x: 0, y: 0}
      m_Rotation: 0
      m_Anchor: 9
    m_Material: {fileID: 2100000, guid: 31321ba15b8f8eb4c954353edc038b1d, type: 2}
    m_SubmeshIndex: 0
    m_ManualUV: 0
    elementGroup: 0
    m_TextureGroup: -1
  - m_Indexes: 4c0000004d0000004e0000004d0000004f0000004e000000
    m_SmoothingGroup: 0
    m_Uv:
      m_UseWorldSpace: 0
      m_FlipU: 0
      m_FlipV: 0
      m_SwapUV: 0
      m_Fill: 1
      m_Scale: {x: 1, y: 1}
      m_Offset: {x: 0, y: 0}
      m_Rotation: 0
      m_Anchor: 9
    m_Material: {fileID: 2100000, guid: 31321ba15b8f8eb4c954353edc038b1d, type: 2}
    m_SubmeshIndex: 0
    m_ManualUV: 0
    elementGroup: 0
    m_TextureGroup: -1
  - m_Indexes: 500000005100000052000000510000005300000052000000
    m_SmoothingGroup: 0
    m_Uv:
      m_UseWorldSpace: 0
      m_FlipU: 0
      m_FlipV: 0
      m_SwapUV: 0
      m_Fill: 1
      m_Scale: {x: 1, y: 1}
      m_Offset: {x: 0, y: 0}
      m_Rotation: 0
      m_Anchor: 9
    m_Material: {fileID: 2100000, guid: 31321ba15b8f8eb4c954353edc038b1d, type: 2}
    m_SubmeshIndex: 0
    m_ManualUV: 0
    elementGroup: 0
    m_TextureGroup: -1
  - m_Indexes: 540000005500000056000000550000005700000056000000
    m_SmoothingGroup: 0
    m_Uv:
      m_UseWorldSpace: 0
      m_FlipU: 0
      m_FlipV: 0
      m_SwapUV: 0
      m_Fill: 1
      m_Scale: {x: 1, y: 1}
      m_Offset: {x: 0, y: 0}
      m_Rotation: 0
      m_Anchor: 9
    m_Material: {fileID: 2100000, guid: 31321ba15b8f8eb4c954353edc038b1d, type: 2}
    m_SubmeshIndex: 0
    m_ManualUV: 0
    elementGroup: 0
    m_TextureGroup: -1
  - m_Indexes: 58000000590000005a000000590000005b0000005a000000
    m_SmoothingGroup: 0
    m_Uv:
      m_UseWorldSpace: 0
      m_FlipU: 0
      m_FlipV: 0
      m_SwapUV: 0
      m_Fill: 1
      m_Scale: {x: 1, y: 1}
      m_Offset: {x: 0, y: 0}
      m_Rotation: 0
      m_Anchor: 9
    m_Material: {fileID: 2100000, guid: 31321ba15b8f8eb4c954353edc038b1d, type: 2}
    m_SubmeshIndex: 0
    m_ManualUV: 0
    elementGroup: 0
    m_TextureGroup: -1
  - m_Indexes: 5c0000005d0000005e0000005d0000005f0000005e000000
    m_SmoothingGroup: 0
    m_Uv:
      m_UseWorldSpace: 0
      m_FlipU: 0
      m_FlipV: 0
      m_SwapUV: 0
      m_Fill: 1
      m_Scale: {x: 1, y: 1}
      m_Offset: {x: 0, y: 0}
      m_Rotation: 0
      m_Anchor: 9
    m_Material: {fileID: 2100000, guid: 31321ba15b8f8eb4c954353edc038b1d, type: 2}
    m_SubmeshIndex: 0
    m_ManualUV: 0
    elementGroup: 0
    m_TextureGroup: -1
  - m_Indexes: 600000006100000062000000610000006300000062000000
    m_SmoothingGroup: 0
    m_Uv:
      m_UseWorldSpace: 0
      m_FlipU: 0
      m_FlipV: 0
      m_SwapUV: 0
      m_Fill: 1
      m_Scale: {x: 1, y: 1}
      m_Offset: {x: 0, y: 0}
      m_Rotation: 0
      m_Anchor: 9
    m_Material: {fileID: 2100000, guid: 31321ba15b8f8eb4c954353edc038b1d, type: 2}
    m_SubmeshIndex: 0
    m_ManualUV: 0
    elementGroup: 0
    m_TextureGroup: -1
  - m_Indexes: 640000006500000066000000650000006700000066000000
    m_SmoothingGroup: 0
    m_Uv:
      m_UseWorldSpace: 0
      m_FlipU: 0
      m_FlipV: 0
      m_SwapUV: 0
      m_Fill: 1
      m_Scale: {x: 1, y: 1}
      m_Offset: {x: 0, y: 0}
      m_Rotation: 0
      m_Anchor: 9
    m_Material: {fileID: 2100000, guid: 31321ba15b8f8eb4c954353edc038b1d, type: 2}
    m_SubmeshIndex: 0
    m_ManualUV: 0
    elementGroup: 0
    m_TextureGroup: -1
  - m_Indexes: 68000000690000006a000000690000006b0000006a000000
    m_SmoothingGroup: 0
    m_Uv:
      m_UseWorldSpace: 0
      m_FlipU: 0
      m_FlipV: 0
      m_SwapUV: 0
      m_Fill: 1
      m_Scale: {x: 1, y: 1}
      m_Offset: {x: 0, y: 0}
      m_Rotation: 0
      m_Anchor: 9
    m_Material: {fileID: 2100000, guid: 31321ba15b8f8eb4c954353edc038b1d, type: 2}
    m_SubmeshIndex: 0
    m_ManualUV: 0
    elementGroup: 0
    m_TextureGroup: -1
  - m_Indexes: 6c0000006d0000006e0000006d0000006f0000006e000000
    m_SmoothingGroup: 0
    m_Uv:
      m_UseWorldSpace: 0
      m_FlipU: 0
      m_FlipV: 0
      m_SwapUV: 0
      m_Fill: 1
      m_Scale: {x: 1, y: 1}
      m_Offset: {x: 0, y: 0}
      m_Rotation: 0
      m_Anchor: 9
    m_Material: {fileID: 2100000, guid: 31321ba15b8f8eb4c954353edc038b1d, type: 2}
    m_SubmeshIndex: 0
    m_ManualUV: 0
    elementGroup: 0
    m_TextureGroup: -1
  - m_Indexes: 700000007100000072000000710000007300000072000000
    m_SmoothingGroup: 0
    m_Uv:
      m_UseWorldSpace: 0
      m_FlipU: 0
      m_FlipV: 0
      m_SwapUV: 0
      m_Fill: 1
      m_Scale: {x: 1, y: 1}
      m_Offset: {x: 0, y: 0}
      m_Rotation: 0
      m_Anchor: 9
    m_Material: {fileID: 2100000, guid: 31321ba15b8f8eb4c954353edc038b1d, type: 2}
    m_SubmeshIndex: 0
    m_ManualUV: 0
    elementGroup: 0
    m_TextureGroup: -1
  - m_Indexes: 740000007500000076000000750000007700000076000000
    m_SmoothingGroup: 0
    m_Uv:
      m_UseWorldSpace: 0
      m_FlipU: 0
      m_FlipV: 0
      m_SwapUV: 0
      m_Fill: 1
      m_Scale: {x: 1, y: 1}
      m_Offset: {x: 0, y: 0}
      m_Rotation: 0
      m_Anchor: 9
    m_Material: {fileID: 2100000, guid: 31321ba15b8f8eb4c954353edc038b1d, type: 2}
    m_SubmeshIndex: 0
    m_ManualUV: 0
    elementGroup: 0
    m_TextureGroup: -1
  - m_Indexes: 78000000790000007a000000790000007b0000007a000000
    m_SmoothingGroup: 0
    m_Uv:
      m_UseWorldSpace: 0
      m_FlipU: 0
      m_FlipV: 0
      m_SwapUV: 0
      m_Fill: 1
      m_Scale: {x: 1, y: 1}
      m_Offset: {x: 0, y: 0}
      m_Rotation: 0
      m_Anchor: 9
    m_Material: {fileID: 2100000, guid: 31321ba15b8f8eb4c954353edc038b1d, type: 2}
    m_SubmeshIndex: 0
    m_ManualUV: 0
    elementGroup: 0
    m_TextureGroup: -1
  - m_Indexes: 7c0000007d0000007e0000007d0000007f0000007e000000
    m_SmoothingGroup: 0
    m_Uv:
      m_UseWorldSpace: 0
      m_FlipU: 0
      m_FlipV: 0
      m_SwapUV: 0
      m_Fill: 1
      m_Scale: {x: 1, y: 1}
      m_Offset: {x: 0, y: 0}
      m_Rotation: 0
      m_Anchor: 9
    m_Material: {fileID: 2100000, guid: 31321ba15b8f8eb4c954353edc038b1d, type: 2}
    m_SubmeshIndex: 0
    m_ManualUV: 0
    elementGroup: 0
    m_TextureGroup: -1
  - m_Indexes: 800000008100000082000000810000008300000082000000
    m_SmoothingGroup: 0
    m_Uv:
      m_UseWorldSpace: 0
      m_FlipU: 0
      m_FlipV: 0
      m_SwapUV: 0
      m_Fill: 1
      m_Scale: {x: 1, y: 1}
      m_Offset: {x: 0, y: 0}
      m_Rotation: 0
      m_Anchor: 9
    m_Material: {fileID: 2100000, guid: 31321ba15b8f8eb4c954353edc038b1d, type: 2}
    m_SubmeshIndex: 0
    m_ManualUV: 0
    elementGroup: 0
    m_TextureGroup: -1
  - m_Indexes: 840000008500000086000000850000008700000086000000
    m_SmoothingGroup: 0
    m_Uv:
      m_UseWorldSpace: 0
      m_FlipU: 0
      m_FlipV: 0
      m_SwapUV: 0
      m_Fill: 1
      m_Scale: {x: 1, y: 1}
      m_Offset: {x: 0, y: 0}
      m_Rotation: 0
      m_Anchor: 9
    m_Material: {fileID: 2100000, guid: 31321ba15b8f8eb4c954353edc038b1d, type: 2}
    m_SubmeshIndex: 0
    m_ManualUV: 0
    elementGroup: 0
    m_TextureGroup: -1
  - m_Indexes: 88000000890000008a000000890000008b0000008a000000
    m_SmoothingGroup: 0
    m_Uv:
      m_UseWorldSpace: 0
      m_FlipU: 0
      m_FlipV: 0
      m_SwapUV: 0
      m_Fill: 1
      m_Scale: {x: 1, y: 1}
      m_Offset: {x: 0, y: 0}
      m_Rotation: 0
      m_Anchor: 9
    m_Material: {fileID: 2100000, guid: 31321ba15b8f8eb4c954353edc038b1d, type: 2}
    m_SubmeshIndex: 0
    m_ManualUV: 0
    elementGroup: 0
    m_TextureGroup: -1
  - m_Indexes: 8c0000008d0000008e0000008d0000008f0000008e000000
    m_SmoothingGroup: 0
    m_Uv:
      m_UseWorldSpace: 0
      m_FlipU: 0
      m_FlipV: 0
      m_SwapUV: 0
      m_Fill: 1
      m_Scale: {x: 1, y: 1}
      m_Offset: {x: 0, y: 0}
      m_Rotation: 0
      m_Anchor: 9
    m_Material: {fileID: 2100000, guid: 31321ba15b8f8eb4c954353edc038b1d, type: 2}
    m_SubmeshIndex: 0
    m_ManualUV: 0
    elementGroup: 0
    m_TextureGroup: -1
  - m_Indexes: 900000009100000092000000910000009300000092000000
    m_SmoothingGroup: 0
    m_Uv:
      m_UseWorldSpace: 0
      m_FlipU: 0
      m_FlipV: 0
      m_SwapUV: 0
      m_Fill: 1
      m_Scale: {x: 1, y: 1}
      m_Offset: {x: 0, y: 0}
      m_Rotation: 0
      m_Anchor: 9
    m_Material: {fileID: 2100000, guid: 31321ba15b8f8eb4c954353edc038b1d, type: 2}
    m_SubmeshIndex: 0
    m_ManualUV: 0
    elementGroup: 0
    m_TextureGroup: -1
  - m_Indexes: 940000009500000096000000950000009700000096000000
    m_SmoothingGroup: 0
    m_Uv:
      m_UseWorldSpace: 0
      m_FlipU: 0
      m_FlipV: 0
      m_SwapUV: 0
      m_Fill: 1
      m_Scale: {x: 1, y: 1}
      m_Offset: {x: 0, y: 0}
      m_Rotation: 0
      m_Anchor: 9
    m_Material: {fileID: 2100000, guid: 31321ba15b8f8eb4c954353edc038b1d, type: 2}
    m_SubmeshIndex: 0
    m_ManualUV: 0
    elementGroup: 0
    m_TextureGroup: -1
  - m_Indexes: 98000000990000009a000000990000009b0000009a000000
    m_SmoothingGroup: 0
    m_Uv:
      m_UseWorldSpace: 0
      m_FlipU: 0
      m_FlipV: 0
      m_SwapUV: 0
      m_Fill: 1
      m_Scale: {x: 1, y: 1}
      m_Offset: {x: 0, y: 0}
      m_Rotation: 0
      m_Anchor: 9
    m_Material: {fileID: 2100000, guid: 31321ba15b8f8eb4c954353edc038b1d, type: 2}
    m_SubmeshIndex: 0
    m_ManualUV: 0
    elementGroup: 0
    m_TextureGroup: -1
  - m_Indexes: 9c0000009d0000009e0000009d0000009f0000009e000000
    m_SmoothingGroup: 0
    m_Uv:
      m_UseWorldSpace: 0
      m_FlipU: 0
      m_FlipV: 0
      m_SwapUV: 0
      m_Fill: 1
      m_Scale: {x: 1, y: 1}
      m_Offset: {x: 0, y: 0}
      m_Rotation: 0
      m_Anchor: 9
    m_Material: {fileID: 2100000, guid: 31321ba15b8f8eb4c954353edc038b1d, type: 2}
    m_SubmeshIndex: 0
    m_ManualUV: 0
    elementGroup: 0
    m_TextureGroup: -1
  - m_Indexes: a0000000a1000000a2000000a1000000a3000000a2000000
    m_SmoothingGroup: 0
    m_Uv:
      m_UseWorldSpace: 0
      m_FlipU: 0
      m_FlipV: 0
      m_SwapUV: 0
      m_Fill: 1
      m_Scale: {x: 1, y: 1}
      m_Offset: {x: 0, y: 0}
      m_Rotation: 0
      m_Anchor: 9
    m_Material: {fileID: 2100000, guid: 31321ba15b8f8eb4c954353edc038b1d, type: 2}
    m_SubmeshIndex: 0
    m_ManualUV: 0
    elementGroup: 0
    m_TextureGroup: 1
  - m_Indexes: a4000000a5000000a6000000a5000000a7000000a6000000
    m_SmoothingGroup: 0
    m_Uv:
      m_UseWorldSpace: 0
      m_FlipU: 0
      m_FlipV: 0
      m_SwapUV: 0
      m_Fill: 1
      m_Scale: {x: 1, y: 1}
      m_Offset: {x: 0, y: 0}
      m_Rotation: 0
      m_Anchor: 9
    m_Material: {fileID: 2100000, guid: 31321ba15b8f8eb4c954353edc038b1d, type: 2}
    m_SubmeshIndex: 0
    m_ManualUV: 0
    elementGroup: 0
    m_TextureGroup: 1
  - m_Indexes: aa000000a9000000a8000000
    m_SmoothingGroup: 0
    m_Uv:
      m_UseWorldSpace: 0
      m_FlipU: 0
      m_FlipV: 0
      m_SwapUV: 0
      m_Fill: 1
      m_Scale: {x: 1, y: 1}
      m_Offset: {x: 0, y: 0}
      m_Rotation: 0
      m_Anchor: 9
    m_Material: {fileID: 2100000, guid: 31321ba15b8f8eb4c954353edc038b1d, type: 2}
    m_SubmeshIndex: 0
    m_ManualUV: 0
    elementGroup: 0
    m_TextureGroup: 1
  - m_Indexes: ab000000ac000000ad000000ac000000ae000000ad000000
    m_SmoothingGroup: 0
    m_Uv:
      m_UseWorldSpace: 0
      m_FlipU: 0
      m_FlipV: 0
      m_SwapUV: 0
      m_Fill: 1
      m_Scale: {x: 1, y: 1}
      m_Offset: {x: 0, y: 0}
      m_Rotation: 0
      m_Anchor: 9
    m_Material: {fileID: 2100000, guid: 31321ba15b8f8eb4c954353edc038b1d, type: 2}
    m_SubmeshIndex: 0
    m_ManualUV: 0
    elementGroup: 0
    m_TextureGroup: 1
  - m_Indexes: b1000000b0000000af000000
    m_SmoothingGroup: 0
    m_Uv:
      m_UseWorldSpace: 0
      m_FlipU: 0
      m_FlipV: 0
      m_SwapUV: 0
      m_Fill: 1
      m_Scale: {x: 1, y: 1}
      m_Offset: {x: 0, y: 0}
      m_Rotation: 0
      m_Anchor: 9
    m_Material: {fileID: 2100000, guid: 31321ba15b8f8eb4c954353edc038b1d, type: 2}
    m_SubmeshIndex: 0
    m_ManualUV: 0
    elementGroup: 0
    m_TextureGroup: 1
  - m_Indexes: b2000000b3000000b4000000b3000000b5000000b4000000
    m_SmoothingGroup: 0
    m_Uv:
      m_UseWorldSpace: 0
      m_FlipU: 0
      m_FlipV: 0
      m_SwapUV: 0
      m_Fill: 1
      m_Scale: {x: 1, y: 1}
      m_Offset: {x: 0, y: 0}
      m_Rotation: 0
      m_Anchor: 9
    m_Material: {fileID: 2100000, guid: 31321ba15b8f8eb4c954353edc038b1d, type: 2}
    m_SubmeshIndex: 0
    m_ManualUV: 0
    elementGroup: 0
    m_TextureGroup: 1
  - m_Indexes: b8000000b7000000b6000000
    m_SmoothingGroup: 0
    m_Uv:
      m_UseWorldSpace: 0
      m_FlipU: 0
      m_FlipV: 0
      m_SwapUV: 0
      m_Fill: 1
      m_Scale: {x: 1, y: 1}
      m_Offset: {x: 0, y: 0}
      m_Rotation: 0
      m_Anchor: 9
    m_Material: {fileID: 2100000, guid: 31321ba15b8f8eb4c954353edc038b1d, type: 2}
    m_SubmeshIndex: 0
    m_ManualUV: 0
    elementGroup: 0
    m_TextureGroup: 1
  - m_Indexes: b9000000ba000000bb000000ba000000bc000000bb000000
    m_SmoothingGroup: 0
    m_Uv:
      m_UseWorldSpace: 0
      m_FlipU: 0
      m_FlipV: 0
      m_SwapUV: 0
      m_Fill: 1
      m_Scale: {x: 1, y: 1}
      m_Offset: {x: 0, y: 0}
      m_Rotation: 0
      m_Anchor: 9
    m_Material: {fileID: 2100000, guid: 31321ba15b8f8eb4c954353edc038b1d, type: 2}
    m_SubmeshIndex: 0
    m_ManualUV: 0
    elementGroup: 0
    m_TextureGroup: 1
  - m_Indexes: bf000000be000000bd000000
    m_SmoothingGroup: 0
    m_Uv:
      m_UseWorldSpace: 0
      m_FlipU: 0
      m_FlipV: 0
      m_SwapUV: 0
      m_Fill: 1
      m_Scale: {x: 1, y: 1}
      m_Offset: {x: 0, y: 0}
      m_Rotation: 0
      m_Anchor: 9
    m_Material: {fileID: 2100000, guid: 31321ba15b8f8eb4c954353edc038b1d, type: 2}
    m_SubmeshIndex: 0
    m_ManualUV: 0
    elementGroup: 0
    m_TextureGroup: 1
  - m_Indexes: c0000000c1000000c2000000c1000000c3000000c2000000
    m_SmoothingGroup: 0
    m_Uv:
      m_UseWorldSpace: 0
      m_FlipU: 0
      m_FlipV: 0
      m_SwapUV: 0
      m_Fill: 1
      m_Scale: {x: 1, y: 1}
      m_Offset: {x: 0, y: 0}
      m_Rotation: 0
      m_Anchor: 9
    m_Material: {fileID: 2100000, guid: 31321ba15b8f8eb4c954353edc038b1d, type: 2}
    m_SubmeshIndex: 0
    m_ManualUV: 0
    elementGroup: 0
    m_TextureGroup: 1
  - m_Indexes: c6000000c5000000c4000000
    m_SmoothingGroup: 0
    m_Uv:
      m_UseWorldSpace: 0
      m_FlipU: 0
      m_FlipV: 0
      m_SwapUV: 0
      m_Fill: 1
      m_Scale: {x: 1, y: 1}
      m_Offset: {x: 0, y: 0}
      m_Rotation: 0
      m_Anchor: 9
    m_Material: {fileID: 2100000, guid: 31321ba15b8f8eb4c954353edc038b1d, type: 2}
    m_SubmeshIndex: 0
    m_ManualUV: 0
    elementGroup: 0
    m_TextureGroup: 1
  - m_Indexes: c7000000c8000000c9000000c8000000ca000000c9000000
    m_SmoothingGroup: 0
    m_Uv:
      m_UseWorldSpace: 0
      m_FlipU: 0
      m_FlipV: 0
      m_SwapUV: 0
      m_Fill: 1
      m_Scale: {x: 1, y: 1}
      m_Offset: {x: 0, y: 0}
      m_Rotation: 0
      m_Anchor: 9
    m_Material: {fileID: 2100000, guid: 31321ba15b8f8eb4c954353edc038b1d, type: 2}
    m_SubmeshIndex: 0
    m_ManualUV: 0
    elementGroup: 0
    m_TextureGroup: 1
  - m_Indexes: cd000000cc000000cb000000
    m_SmoothingGroup: 0
    m_Uv:
      m_UseWorldSpace: 0
      m_FlipU: 0
      m_FlipV: 0
      m_SwapUV: 0
      m_Fill: 1
      m_Scale: {x: 1, y: 1}
      m_Offset: {x: 0, y: 0}
      m_Rotation: 0
      m_Anchor: 9
    m_Material: {fileID: 2100000, guid: 31321ba15b8f8eb4c954353edc038b1d, type: 2}
    m_SubmeshIndex: 0
    m_ManualUV: 0
    elementGroup: 0
    m_TextureGroup: 1
  - m_Indexes: ce000000cf000000d0000000cf000000d1000000d0000000
    m_SmoothingGroup: 0
    m_Uv:
      m_UseWorldSpace: 0
      m_FlipU: 0
      m_FlipV: 0
      m_SwapUV: 0
      m_Fill: 1
      m_Scale: {x: 1, y: 1}
      m_Offset: {x: 0, y: 0}
      m_Rotation: 0
      m_Anchor: 9
    m_Material: {fileID: 2100000, guid: 31321ba15b8f8eb4c954353edc038b1d, type: 2}
    m_SubmeshIndex: 0
    m_ManualUV: 0
    elementGroup: 0
    m_TextureGroup: 1
  - m_Indexes: d4000000d3000000d2000000
    m_SmoothingGroup: 0
    m_Uv:
      m_UseWorldSpace: 0
      m_FlipU: 0
      m_FlipV: 0
      m_SwapUV: 0
      m_Fill: 1
      m_Scale: {x: 1, y: 1}
      m_Offset: {x: 0, y: 0}
      m_Rotation: 0
      m_Anchor: 9
    m_Material: {fileID: 2100000, guid: 31321ba15b8f8eb4c954353edc038b1d, type: 2}
    m_SubmeshIndex: 0
    m_ManualUV: 0
    elementGroup: 0
    m_TextureGroup: 1
  - m_Indexes: d5000000d6000000d7000000d6000000d8000000d7000000
    m_SmoothingGroup: 0
    m_Uv:
      m_UseWorldSpace: 0
      m_FlipU: 0
      m_FlipV: 0
      m_SwapUV: 0
      m_Fill: 1
      m_Scale: {x: 1, y: 1}
      m_Offset: {x: 0, y: 0}
      m_Rotation: 0
      m_Anchor: 9
    m_Material: {fileID: 2100000, guid: 31321ba15b8f8eb4c954353edc038b1d, type: 2}
    m_SubmeshIndex: 0
    m_ManualUV: 0
    elementGroup: 0
    m_TextureGroup: 1
  - m_Indexes: db000000da000000d9000000
    m_SmoothingGroup: 0
    m_Uv:
      m_UseWorldSpace: 0
      m_FlipU: 0
      m_FlipV: 0
      m_SwapUV: 0
      m_Fill: 1
      m_Scale: {x: 1, y: 1}
      m_Offset: {x: 0, y: 0}
      m_Rotation: 0
      m_Anchor: 9
    m_Material: {fileID: 2100000, guid: 31321ba15b8f8eb4c954353edc038b1d, type: 2}
    m_SubmeshIndex: 0
    m_ManualUV: 0
    elementGroup: 0
    m_TextureGroup: 1
  - m_Indexes: dc000000dd000000de000000dd000000df000000de000000
    m_SmoothingGroup: 0
    m_Uv:
      m_UseWorldSpace: 0
      m_FlipU: 0
      m_FlipV: 0
      m_SwapUV: 0
      m_Fill: 1
      m_Scale: {x: 1, y: 1}
      m_Offset: {x: 0, y: 0}
      m_Rotation: 0
      m_Anchor: 9
    m_Material: {fileID: 2100000, guid: 31321ba15b8f8eb4c954353edc038b1d, type: 2}
    m_SubmeshIndex: 0
    m_ManualUV: 0
    elementGroup: 0
    m_TextureGroup: 1
  - m_Indexes: e2000000e1000000e0000000
    m_SmoothingGroup: 0
    m_Uv:
      m_UseWorldSpace: 0
      m_FlipU: 0
      m_FlipV: 0
      m_SwapUV: 0
      m_Fill: 1
      m_Scale: {x: 1, y: 1}
      m_Offset: {x: 0, y: 0}
      m_Rotation: 0
      m_Anchor: 9
    m_Material: {fileID: 2100000, guid: 31321ba15b8f8eb4c954353edc038b1d, type: 2}
    m_SubmeshIndex: 0
    m_ManualUV: 0
    elementGroup: 0
    m_TextureGroup: 1
  - m_Indexes: e3000000e4000000e5000000e4000000e6000000e5000000
    m_SmoothingGroup: 0
    m_Uv:
      m_UseWorldSpace: 0
      m_FlipU: 0
      m_FlipV: 0
      m_SwapUV: 0
      m_Fill: 1
      m_Scale: {x: 1, y: 1}
      m_Offset: {x: 0, y: 0}
      m_Rotation: 0
      m_Anchor: 9
    m_Material: {fileID: 2100000, guid: 31321ba15b8f8eb4c954353edc038b1d, type: 2}
    m_SubmeshIndex: 0
    m_ManualUV: 0
    elementGroup: 0
    m_TextureGroup: 1
  - m_Indexes: e9000000e8000000e7000000
    m_SmoothingGroup: 0
    m_Uv:
      m_UseWorldSpace: 0
      m_FlipU: 0
      m_FlipV: 0
      m_SwapUV: 0
      m_Fill: 1
      m_Scale: {x: 1, y: 1}
      m_Offset: {x: 0, y: 0}
      m_Rotation: 0
      m_Anchor: 9
    m_Material: {fileID: 2100000, guid: 31321ba15b8f8eb4c954353edc038b1d, type: 2}
    m_SubmeshIndex: 0
    m_ManualUV: 0
    elementGroup: 0
    m_TextureGroup: 1
  - m_Indexes: ea000000eb000000ec000000eb000000ed000000ec000000
    m_SmoothingGroup: 0
    m_Uv:
      m_UseWorldSpace: 0
      m_FlipU: 0
      m_FlipV: 0
      m_SwapUV: 0
      m_Fill: 1
      m_Scale: {x: 1, y: 1}
      m_Offset: {x: 0, y: 0}
      m_Rotation: 0
      m_Anchor: 9
    m_Material: {fileID: 2100000, guid: 31321ba15b8f8eb4c954353edc038b1d, type: 2}
    m_SubmeshIndex: 0
    m_ManualUV: 0
    elementGroup: 0
    m_TextureGroup: 1
  - m_Indexes: f0000000ef000000ee000000
    m_SmoothingGroup: 0
    m_Uv:
      m_UseWorldSpace: 0
      m_FlipU: 0
      m_FlipV: 0
      m_SwapUV: 0
      m_Fill: 1
      m_Scale: {x: 1, y: 1}
      m_Offset: {x: 0, y: 0}
      m_Rotation: 0
      m_Anchor: 9
    m_Material: {fileID: 2100000, guid: 31321ba15b8f8eb4c954353edc038b1d, type: 2}
    m_SubmeshIndex: 0
    m_ManualUV: 0
    elementGroup: 0
    m_TextureGroup: 1
  - m_Indexes: f1000000f2000000f3000000f2000000f4000000f3000000
    m_SmoothingGroup: 0
    m_Uv:
      m_UseWorldSpace: 0
      m_FlipU: 0
      m_FlipV: 0
      m_SwapUV: 0
      m_Fill: 1
      m_Scale: {x: 1, y: 1}
      m_Offset: {x: 0, y: 0}
      m_Rotation: 0
      m_Anchor: 9
    m_Material: {fileID: 2100000, guid: 31321ba15b8f8eb4c954353edc038b1d, type: 2}
    m_SubmeshIndex: 0
    m_ManualUV: 0
    elementGroup: 0
    m_TextureGroup: 1
  - m_Indexes: f7000000f6000000f5000000
    m_SmoothingGroup: 0
    m_Uv:
      m_UseWorldSpace: 0
      m_FlipU: 0
      m_FlipV: 0
      m_SwapUV: 0
      m_Fill: 1
      m_Scale: {x: 1, y: 1}
      m_Offset: {x: 0, y: 0}
      m_Rotation: 0
      m_Anchor: 9
    m_Material: {fileID: 2100000, guid: 31321ba15b8f8eb4c954353edc038b1d, type: 2}
    m_SubmeshIndex: 0
    m_ManualUV: 0
    elementGroup: 0
    m_TextureGroup: 1
  - m_Indexes: f8000000f9000000fa000000f9000000fb000000fa000000
    m_SmoothingGroup: 0
    m_Uv:
      m_UseWorldSpace: 0
      m_FlipU: 0
      m_FlipV: 0
      m_SwapUV: 0
      m_Fill: 1
      m_Scale: {x: 1, y: 1}
      m_Offset: {x: 0, y: 0}
      m_Rotation: 0
      m_Anchor: 9
    m_Material: {fileID: 2100000, guid: 31321ba15b8f8eb4c954353edc038b1d, type: 2}
    m_SubmeshIndex: 0
    m_ManualUV: 0
    elementGroup: 0
    m_TextureGroup: 1
  - m_Indexes: fe000000fd000000fc000000
    m_SmoothingGroup: 0
    m_Uv:
      m_UseWorldSpace: 0
      m_FlipU: 0
      m_FlipV: 0
      m_SwapUV: 0
      m_Fill: 1
      m_Scale: {x: 1, y: 1}
      m_Offset: {x: 0, y: 0}
      m_Rotation: 0
      m_Anchor: 9
    m_Material: {fileID: 2100000, guid: 31321ba15b8f8eb4c954353edc038b1d, type: 2}
    m_SubmeshIndex: 0
    m_ManualUV: 0
    elementGroup: 0
    m_TextureGroup: 1
  - m_Indexes: ff0000000001000001010000000100000201000001010000
    m_SmoothingGroup: 0
    m_Uv:
      m_UseWorldSpace: 0
      m_FlipU: 0
      m_FlipV: 0
      m_SwapUV: 0
      m_Fill: 1
      m_Scale: {x: 1, y: 1}
      m_Offset: {x: 0, y: 0}
      m_Rotation: 0
      m_Anchor: 9
    m_Material: {fileID: 2100000, guid: 31321ba15b8f8eb4c954353edc038b1d, type: 2}
    m_SubmeshIndex: 0
    m_ManualUV: 0
    elementGroup: 0
    m_TextureGroup: 1
  - m_Indexes: 050100000401000003010000
    m_SmoothingGroup: 0
    m_Uv:
      m_UseWorldSpace: 0
      m_FlipU: 0
      m_FlipV: 0
      m_SwapUV: 0
      m_Fill: 1
      m_Scale: {x: 1, y: 1}
      m_Offset: {x: 0, y: 0}
      m_Rotation: 0
      m_Anchor: 9
    m_Material: {fileID: 2100000, guid: 31321ba15b8f8eb4c954353edc038b1d, type: 2}
    m_SubmeshIndex: 0
    m_ManualUV: 0
    elementGroup: 0
    m_TextureGroup: 1
  - m_Indexes: 060100000701000008010000070100000901000008010000
    m_SmoothingGroup: 0
    m_Uv:
      m_UseWorldSpace: 0
      m_FlipU: 0
      m_FlipV: 0
      m_SwapUV: 0
      m_Fill: 1
      m_Scale: {x: 1, y: 1}
      m_Offset: {x: 0, y: 0}
      m_Rotation: 0
      m_Anchor: 9
    m_Material: {fileID: 2100000, guid: 31321ba15b8f8eb4c954353edc038b1d, type: 2}
    m_SubmeshIndex: 0
    m_ManualUV: 0
    elementGroup: 0
    m_TextureGroup: 1
  - m_Indexes: 0c0100000b0100000a010000
    m_SmoothingGroup: 0
    m_Uv:
      m_UseWorldSpace: 0
      m_FlipU: 0
      m_FlipV: 0
      m_SwapUV: 0
      m_Fill: 1
      m_Scale: {x: 1, y: 1}
      m_Offset: {x: 0, y: 0}
      m_Rotation: 0
      m_Anchor: 9
    m_Material: {fileID: 2100000, guid: 31321ba15b8f8eb4c954353edc038b1d, type: 2}
    m_SubmeshIndex: 0
    m_ManualUV: 0
    elementGroup: 0
    m_TextureGroup: 1
  - m_Indexes: 0d0100000e0100000f0100000e010000100100000f010000
    m_SmoothingGroup: 0
    m_Uv:
      m_UseWorldSpace: 0
      m_FlipU: 0
      m_FlipV: 0
      m_SwapUV: 0
      m_Fill: 1
      m_Scale: {x: 1, y: 1}
      m_Offset: {x: 0, y: 0}
      m_Rotation: 0
      m_Anchor: 9
    m_Material: {fileID: 2100000, guid: 31321ba15b8f8eb4c954353edc038b1d, type: 2}
    m_SubmeshIndex: 0
    m_ManualUV: 0
    elementGroup: 0
    m_TextureGroup: 1
  - m_Indexes: 130100001201000011010000
    m_SmoothingGroup: 0
    m_Uv:
      m_UseWorldSpace: 0
      m_FlipU: 0
      m_FlipV: 0
      m_SwapUV: 0
      m_Fill: 1
      m_Scale: {x: 1, y: 1}
      m_Offset: {x: 0, y: 0}
      m_Rotation: 0
      m_Anchor: 9
    m_Material: {fileID: 2100000, guid: 31321ba15b8f8eb4c954353edc038b1d, type: 2}
    m_SubmeshIndex: 0
    m_ManualUV: 0
    elementGroup: 0
    m_TextureGroup: 1
  - m_Indexes: 140100001501000016010000150100001701000016010000
    m_SmoothingGroup: 0
    m_Uv:
      m_UseWorldSpace: 0
      m_FlipU: 0
      m_FlipV: 0
      m_SwapUV: 0
      m_Fill: 1
      m_Scale: {x: 1, y: 1}
      m_Offset: {x: 0, y: 0}
      m_Rotation: 0
      m_Anchor: 9
    m_Material: {fileID: 2100000, guid: 31321ba15b8f8eb4c954353edc038b1d, type: 2}
    m_SubmeshIndex: 0
    m_ManualUV: 0
    elementGroup: 0
    m_TextureGroup: 1
  - m_Indexes: 1a0100001901000018010000
    m_SmoothingGroup: 0
    m_Uv:
      m_UseWorldSpace: 0
      m_FlipU: 0
      m_FlipV: 0
      m_SwapUV: 0
      m_Fill: 1
      m_Scale: {x: 1, y: 1}
      m_Offset: {x: 0, y: 0}
      m_Rotation: 0
      m_Anchor: 9
    m_Material: {fileID: 2100000, guid: 31321ba15b8f8eb4c954353edc038b1d, type: 2}
    m_SubmeshIndex: 0
    m_ManualUV: 0
    elementGroup: 0
    m_TextureGroup: 1
  - m_Indexes: 1b0100001c0100001d0100001c0100001e0100001d010000
    m_SmoothingGroup: 0
    m_Uv:
      m_UseWorldSpace: 0
      m_FlipU: 0
      m_FlipV: 0
      m_SwapUV: 0
      m_Fill: 1
      m_Scale: {x: 1, y: 1}
      m_Offset: {x: 0, y: 0}
      m_Rotation: 0
      m_Anchor: 9
    m_Material: {fileID: 2100000, guid: 31321ba15b8f8eb4c954353edc038b1d, type: 2}
    m_SubmeshIndex: 0
    m_ManualUV: 0
    elementGroup: 0
    m_TextureGroup: 1
  - m_Indexes: 21010000200100001f010000
    m_SmoothingGroup: 0
    m_Uv:
      m_UseWorldSpace: 0
      m_FlipU: 0
      m_FlipV: 0
      m_SwapUV: 0
      m_Fill: 1
      m_Scale: {x: 1, y: 1}
      m_Offset: {x: 0, y: 0}
      m_Rotation: 0
      m_Anchor: 9
    m_Material: {fileID: 2100000, guid: 31321ba15b8f8eb4c954353edc038b1d, type: 2}
    m_SubmeshIndex: 0
    m_ManualUV: 0
    elementGroup: 0
    m_TextureGroup: 1
  - m_Indexes: 220100002301000024010000230100002501000024010000
    m_SmoothingGroup: 0
    m_Uv:
      m_UseWorldSpace: 0
      m_FlipU: 0
      m_FlipV: 0
      m_SwapUV: 0
      m_Fill: 1
      m_Scale: {x: 1, y: 1}
      m_Offset: {x: 0, y: 0}
      m_Rotation: 0
      m_Anchor: 9
    m_Material: {fileID: 2100000, guid: 31321ba15b8f8eb4c954353edc038b1d, type: 2}
    m_SubmeshIndex: 0
    m_ManualUV: 0
    elementGroup: 0
    m_TextureGroup: 1
  - m_Indexes: 280100002701000026010000
    m_SmoothingGroup: 0
    m_Uv:
      m_UseWorldSpace: 0
      m_FlipU: 0
      m_FlipV: 0
      m_SwapUV: 0
      m_Fill: 1
      m_Scale: {x: 1, y: 1}
      m_Offset: {x: 0, y: 0}
      m_Rotation: 0
      m_Anchor: 9
    m_Material: {fileID: 2100000, guid: 31321ba15b8f8eb4c954353edc038b1d, type: 2}
    m_SubmeshIndex: 0
    m_ManualUV: 0
    elementGroup: 0
    m_TextureGroup: 1
  - m_Indexes: 2b0100002a010000290100002b0100002c0100002a010000
    m_SmoothingGroup: 0
    m_Uv:
      m_UseWorldSpace: 0
      m_FlipU: 0
      m_FlipV: 0
      m_SwapUV: 0
      m_Fill: 1
      m_Scale: {x: 1, y: 1}
      m_Offset: {x: 0, y: 0}
      m_Rotation: 0
      m_Anchor: 9
    m_Material: {fileID: 2100000, guid: 31321ba15b8f8eb4c954353edc038b1d, type: 2}
    m_SubmeshIndex: 0
    m_ManualUV: 0
    elementGroup: 0
    m_TextureGroup: 2
  - m_Indexes: 2f0100002e0100002d0100002f010000300100002e010000
    m_SmoothingGroup: 0
    m_Uv:
      m_UseWorldSpace: 0
      m_FlipU: 0
      m_FlipV: 0
      m_SwapUV: 0
      m_Fill: 1
      m_Scale: {x: 1, y: 1}
      m_Offset: {x: 0, y: 0}
      m_Rotation: 0
      m_Anchor: 9
    m_Material: {fileID: 2100000, guid: 31321ba15b8f8eb4c954353edc038b1d, type: 2}
    m_SubmeshIndex: 0
    m_ManualUV: 0
    elementGroup: 0
    m_TextureGroup: 2
  - m_Indexes: 310100003201000033010000
    m_SmoothingGroup: 0
    m_Uv:
      m_UseWorldSpace: 0
      m_FlipU: 0
      m_FlipV: 0
      m_SwapUV: 0
      m_Fill: 1
      m_Scale: {x: 1, y: 1}
      m_Offset: {x: 0, y: 0}
      m_Rotation: 0
      m_Anchor: 9
    m_Material: {fileID: 2100000, guid: 31321ba15b8f8eb4c954353edc038b1d, type: 2}
    m_SubmeshIndex: 0
    m_ManualUV: 0
    elementGroup: 0
    m_TextureGroup: 2
  - m_Indexes: 360100003501000034010000360100003701000035010000
    m_SmoothingGroup: 0
    m_Uv:
      m_UseWorldSpace: 0
      m_FlipU: 0
      m_FlipV: 0
      m_SwapUV: 0
      m_Fill: 1
      m_Scale: {x: 1, y: 1}
      m_Offset: {x: 0, y: 0}
      m_Rotation: 0
      m_Anchor: 9
    m_Material: {fileID: 2100000, guid: 31321ba15b8f8eb4c954353edc038b1d, type: 2}
    m_SubmeshIndex: 0
    m_ManualUV: 0
    elementGroup: 0
    m_TextureGroup: 2
  - m_Indexes: 38010000390100003a010000
    m_SmoothingGroup: 0
    m_Uv:
      m_UseWorldSpace: 0
      m_FlipU: 0
      m_FlipV: 0
      m_SwapUV: 0
      m_Fill: 1
      m_Scale: {x: 1, y: 1}
      m_Offset: {x: 0, y: 0}
      m_Rotation: 0
      m_Anchor: 9
    m_Material: {fileID: 2100000, guid: 31321ba15b8f8eb4c954353edc038b1d, type: 2}
    m_SubmeshIndex: 0
    m_ManualUV: 0
    elementGroup: 0
    m_TextureGroup: 2
  - m_Indexes: 3d0100003c0100003b0100003d0100003e0100003c010000
    m_SmoothingGroup: 0
    m_Uv:
      m_UseWorldSpace: 0
      m_FlipU: 0
      m_FlipV: 0
      m_SwapUV: 0
      m_Fill: 1
      m_Scale: {x: 1, y: 1}
      m_Offset: {x: 0, y: 0}
      m_Rotation: 0
      m_Anchor: 9
    m_Material: {fileID: 2100000, guid: 31321ba15b8f8eb4c954353edc038b1d, type: 2}
    m_SubmeshIndex: 0
    m_ManualUV: 0
    elementGroup: 0
    m_TextureGroup: 2
  - m_Indexes: 3f0100004001000041010000
    m_SmoothingGroup: 0
    m_Uv:
      m_UseWorldSpace: 0
      m_FlipU: 0
      m_FlipV: 0
      m_SwapUV: 0
      m_Fill: 1
      m_Scale: {x: 1, y: 1}
      m_Offset: {x: 0, y: 0}
      m_Rotation: 0
      m_Anchor: 9
    m_Material: {fileID: 2100000, guid: 31321ba15b8f8eb4c954353edc038b1d, type: 2}
    m_SubmeshIndex: 0
    m_ManualUV: 0
    elementGroup: 0
    m_TextureGroup: 2
  - m_Indexes: 440100004301000042010000440100004501000043010000
    m_SmoothingGroup: 0
    m_Uv:
      m_UseWorldSpace: 0
      m_FlipU: 0
      m_FlipV: 0
      m_SwapUV: 0
      m_Fill: 1
      m_Scale: {x: 1, y: 1}
      m_Offset: {x: 0, y: 0}
      m_Rotation: 0
      m_Anchor: 9
    m_Material: {fileID: 2100000, guid: 31321ba15b8f8eb4c954353edc038b1d, type: 2}
    m_SubmeshIndex: 0
    m_ManualUV: 0
    elementGroup: 0
    m_TextureGroup: 2
  - m_Indexes: 460100004701000048010000
    m_SmoothingGroup: 0
    m_Uv:
      m_UseWorldSpace: 0
      m_FlipU: 0
      m_FlipV: 0
      m_SwapUV: 0
      m_Fill: 1
      m_Scale: {x: 1, y: 1}
      m_Offset: {x: 0, y: 0}
      m_Rotation: 0
      m_Anchor: 9
    m_Material: {fileID: 2100000, guid: 31321ba15b8f8eb4c954353edc038b1d, type: 2}
    m_SubmeshIndex: 0
    m_ManualUV: 0
    elementGroup: 0
    m_TextureGroup: 2
  - m_Indexes: 4b0100004a010000490100004b0100004c0100004a010000
    m_SmoothingGroup: 0
    m_Uv:
      m_UseWorldSpace: 0
      m_FlipU: 0
      m_FlipV: 0
      m_SwapUV: 0
      m_Fill: 1
      m_Scale: {x: 1, y: 1}
      m_Offset: {x: 0, y: 0}
      m_Rotation: 0
      m_Anchor: 9
    m_Material: {fileID: 2100000, guid: 31321ba15b8f8eb4c954353edc038b1d, type: 2}
    m_SubmeshIndex: 0
    m_ManualUV: 0
    elementGroup: 0
    m_TextureGroup: 2
  - m_Indexes: 4d0100004e0100004f010000
    m_SmoothingGroup: 0
    m_Uv:
      m_UseWorldSpace: 0
      m_FlipU: 0
      m_FlipV: 0
      m_SwapUV: 0
      m_Fill: 1
      m_Scale: {x: 1, y: 1}
      m_Offset: {x: 0, y: 0}
      m_Rotation: 0
      m_Anchor: 9
    m_Material: {fileID: 2100000, guid: 31321ba15b8f8eb4c954353edc038b1d, type: 2}
    m_SubmeshIndex: 0
    m_ManualUV: 0
    elementGroup: 0
    m_TextureGroup: 2
  - m_Indexes: 520100005101000050010000520100005301000051010000
    m_SmoothingGroup: 0
    m_Uv:
      m_UseWorldSpace: 0
      m_FlipU: 0
      m_FlipV: 0
      m_SwapUV: 0
      m_Fill: 1
      m_Scale: {x: 1, y: 1}
      m_Offset: {x: 0, y: 0}
      m_Rotation: 0
      m_Anchor: 9
    m_Material: {fileID: 2100000, guid: 31321ba15b8f8eb4c954353edc038b1d, type: 2}
    m_SubmeshIndex: 0
    m_ManualUV: 0
    elementGroup: 0
    m_TextureGroup: 2
  - m_Indexes: 540100005501000056010000
    m_SmoothingGroup: 0
    m_Uv:
      m_UseWorldSpace: 0
      m_FlipU: 0
      m_FlipV: 0
      m_SwapUV: 0
      m_Fill: 1
      m_Scale: {x: 1, y: 1}
      m_Offset: {x: 0, y: 0}
      m_Rotation: 0
      m_Anchor: 9
    m_Material: {fileID: 2100000, guid: 31321ba15b8f8eb4c954353edc038b1d, type: 2}
    m_SubmeshIndex: 0
    m_ManualUV: 0
    elementGroup: 0
    m_TextureGroup: 2
  - m_Indexes: 590100005801000057010000590100005a01000058010000
    m_SmoothingGroup: 0
    m_Uv:
      m_UseWorldSpace: 0
      m_FlipU: 0
      m_FlipV: 0
      m_SwapUV: 0
      m_Fill: 1
      m_Scale: {x: 1, y: 1}
      m_Offset: {x: 0, y: 0}
      m_Rotation: 0
      m_Anchor: 9
    m_Material: {fileID: 2100000, guid: 31321ba15b8f8eb4c954353edc038b1d, type: 2}
    m_SubmeshIndex: 0
    m_ManualUV: 0
    elementGroup: 0
    m_TextureGroup: 2
  - m_Indexes: 5b0100005c0100005d010000
    m_SmoothingGroup: 0
    m_Uv:
      m_UseWorldSpace: 0
      m_FlipU: 0
      m_FlipV: 0
      m_SwapUV: 0
      m_Fill: 1
      m_Scale: {x: 1, y: 1}
      m_Offset: {x: 0, y: 0}
      m_Rotation: 0
      m_Anchor: 9
    m_Material: {fileID: 2100000, guid: 31321ba15b8f8eb4c954353edc038b1d, type: 2}
    m_SubmeshIndex: 0
    m_ManualUV: 0
    elementGroup: 0
    m_TextureGroup: 2
  - m_Indexes: 600100005f0100005e01000060010000610100005f010000
    m_SmoothingGroup: 0
    m_Uv:
      m_UseWorldSpace: 0
      m_FlipU: 0
      m_FlipV: 0
      m_SwapUV: 0
      m_Fill: 1
      m_Scale: {x: 1, y: 1}
      m_Offset: {x: 0, y: 0}
      m_Rotation: 0
      m_Anchor: 9
    m_Material: {fileID: 2100000, guid: 31321ba15b8f8eb4c954353edc038b1d, type: 2}
    m_SubmeshIndex: 0
    m_ManualUV: 0
    elementGroup: 0
    m_TextureGroup: 2
  - m_Indexes: 620100006301000064010000
    m_SmoothingGroup: 0
    m_Uv:
      m_UseWorldSpace: 0
      m_FlipU: 0
      m_FlipV: 0
      m_SwapUV: 0
      m_Fill: 1
      m_Scale: {x: 1, y: 1}
      m_Offset: {x: 0, y: 0}
      m_Rotation: 0
      m_Anchor: 9
    m_Material: {fileID: 2100000, guid: 31321ba15b8f8eb4c954353edc038b1d, type: 2}
    m_SubmeshIndex: 0
    m_ManualUV: 0
    elementGroup: 0
    m_TextureGroup: 2
  - m_Indexes: 670100006601000065010000670100006801000066010000
    m_SmoothingGroup: 0
    m_Uv:
      m_UseWorldSpace: 0
      m_FlipU: 0
      m_FlipV: 0
      m_SwapUV: 0
      m_Fill: 1
      m_Scale: {x: 1, y: 1}
      m_Offset: {x: 0, y: 0}
      m_Rotation: 0
      m_Anchor: 9
    m_Material: {fileID: 2100000, guid: 31321ba15b8f8eb4c954353edc038b1d, type: 2}
    m_SubmeshIndex: 0
    m_ManualUV: 0
    elementGroup: 0
    m_TextureGroup: 2
  - m_Indexes: 690100006a0100006b010000
    m_SmoothingGroup: 0
    m_Uv:
      m_UseWorldSpace: 0
      m_FlipU: 0
      m_FlipV: 0
      m_SwapUV: 0
      m_Fill: 1
      m_Scale: {x: 1, y: 1}
      m_Offset: {x: 0, y: 0}
      m_Rotation: 0
      m_Anchor: 9
    m_Material: {fileID: 2100000, guid: 31321ba15b8f8eb4c954353edc038b1d, type: 2}
    m_SubmeshIndex: 0
    m_ManualUV: 0
    elementGroup: 0
    m_TextureGroup: 2
  - m_Indexes: 6e0100006d0100006c0100006e0100006f0100006d010000
    m_SmoothingGroup: 0
    m_Uv:
      m_UseWorldSpace: 0
      m_FlipU: 0
      m_FlipV: 0
      m_SwapUV: 0
      m_Fill: 1
      m_Scale: {x: 1, y: 1}
      m_Offset: {x: 0, y: 0}
      m_Rotation: 0
      m_Anchor: 9
    m_Material: {fileID: 2100000, guid: 31321ba15b8f8eb4c954353edc038b1d, type: 2}
    m_SubmeshIndex: 0
    m_ManualUV: 0
    elementGroup: 0
    m_TextureGroup: 2
  - m_Indexes: 700100007101000072010000
    m_SmoothingGroup: 0
    m_Uv:
      m_UseWorldSpace: 0
      m_FlipU: 0
      m_FlipV: 0
      m_SwapUV: 0
      m_Fill: 1
      m_Scale: {x: 1, y: 1}
      m_Offset: {x: 0, y: 0}
      m_Rotation: 0
      m_Anchor: 9
    m_Material: {fileID: 2100000, guid: 31321ba15b8f8eb4c954353edc038b1d, type: 2}
    m_SubmeshIndex: 0
    m_ManualUV: 0
    elementGroup: 0
    m_TextureGroup: 2
  - m_Indexes: 750100007401000073010000750100007601000074010000
    m_SmoothingGroup: 0
    m_Uv:
      m_UseWorldSpace: 0
      m_FlipU: 0
      m_FlipV: 0
      m_SwapUV: 0
      m_Fill: 1
      m_Scale: {x: 1, y: 1}
      m_Offset: {x: 0, y: 0}
      m_Rotation: 0
      m_Anchor: 9
    m_Material: {fileID: 2100000, guid: 31321ba15b8f8eb4c954353edc038b1d, type: 2}
    m_SubmeshIndex: 0
    m_ManualUV: 0
    elementGroup: 0
    m_TextureGroup: 2
  - m_Indexes: 770100007801000079010000
    m_SmoothingGroup: 0
    m_Uv:
      m_UseWorldSpace: 0
      m_FlipU: 0
      m_FlipV: 0
      m_SwapUV: 0
      m_Fill: 1
      m_Scale: {x: 1, y: 1}
      m_Offset: {x: 0, y: 0}
      m_Rotation: 0
      m_Anchor: 9
    m_Material: {fileID: 2100000, guid: 31321ba15b8f8eb4c954353edc038b1d, type: 2}
    m_SubmeshIndex: 0
    m_ManualUV: 0
    elementGroup: 0
    m_TextureGroup: 2
  - m_Indexes: 7c0100007b0100007a0100007c0100007d0100007b010000
    m_SmoothingGroup: 0
    m_Uv:
      m_UseWorldSpace: 0
      m_FlipU: 0
      m_FlipV: 0
      m_SwapUV: 0
      m_Fill: 1
      m_Scale: {x: 1, y: 1}
      m_Offset: {x: 0, y: 0}
      m_Rotation: 0
      m_Anchor: 9
    m_Material: {fileID: 2100000, guid: 31321ba15b8f8eb4c954353edc038b1d, type: 2}
    m_SubmeshIndex: 0
    m_ManualUV: 0
    elementGroup: 0
    m_TextureGroup: 2
  - m_Indexes: 7e0100007f01000080010000
    m_SmoothingGroup: 0
    m_Uv:
      m_UseWorldSpace: 0
      m_FlipU: 0
      m_FlipV: 0
      m_SwapUV: 0
      m_Fill: 1
      m_Scale: {x: 1, y: 1}
      m_Offset: {x: 0, y: 0}
      m_Rotation: 0
      m_Anchor: 9
    m_Material: {fileID: 2100000, guid: 31321ba15b8f8eb4c954353edc038b1d, type: 2}
    m_SubmeshIndex: 0
    m_ManualUV: 0
    elementGroup: 0
    m_TextureGroup: 2
  - m_Indexes: 830100008201000081010000830100008401000082010000
    m_SmoothingGroup: 0
    m_Uv:
      m_UseWorldSpace: 0
      m_FlipU: 0
      m_FlipV: 0
      m_SwapUV: 0
      m_Fill: 1
      m_Scale: {x: 1, y: 1}
      m_Offset: {x: 0, y: 0}
      m_Rotation: 0
      m_Anchor: 9
    m_Material: {fileID: 2100000, guid: 31321ba15b8f8eb4c954353edc038b1d, type: 2}
    m_SubmeshIndex: 0
    m_ManualUV: 0
    elementGroup: 0
    m_TextureGroup: 2
  - m_Indexes: 850100008601000087010000
    m_SmoothingGroup: 0
    m_Uv:
      m_UseWorldSpace: 0
      m_FlipU: 0
      m_FlipV: 0
      m_SwapUV: 0
      m_Fill: 1
      m_Scale: {x: 1, y: 1}
      m_Offset: {x: 0, y: 0}
      m_Rotation: 0
      m_Anchor: 9
    m_Material: {fileID: 2100000, guid: 31321ba15b8f8eb4c954353edc038b1d, type: 2}
    m_SubmeshIndex: 0
    m_ManualUV: 0
    elementGroup: 0
    m_TextureGroup: 2
  - m_Indexes: 8a01000089010000880100008a0100008b01000089010000
    m_SmoothingGroup: 0
    m_Uv:
      m_UseWorldSpace: 0
      m_FlipU: 0
      m_FlipV: 0
      m_SwapUV: 0
      m_Fill: 1
      m_Scale: {x: 1, y: 1}
      m_Offset: {x: 0, y: 0}
      m_Rotation: 0
      m_Anchor: 9
    m_Material: {fileID: 2100000, guid: 31321ba15b8f8eb4c954353edc038b1d, type: 2}
    m_SubmeshIndex: 0
    m_ManualUV: 0
    elementGroup: 0
    m_TextureGroup: 2
  - m_Indexes: 8c0100008d0100008e010000
    m_SmoothingGroup: 0
    m_Uv:
      m_UseWorldSpace: 0
      m_FlipU: 0
      m_FlipV: 0
      m_SwapUV: 0
      m_Fill: 1
      m_Scale: {x: 1, y: 1}
      m_Offset: {x: 0, y: 0}
      m_Rotation: 0
      m_Anchor: 9
    m_Material: {fileID: 2100000, guid: 31321ba15b8f8eb4c954353edc038b1d, type: 2}
    m_SubmeshIndex: 0
    m_ManualUV: 0
    elementGroup: 0
    m_TextureGroup: 2
  - m_Indexes: 91010000900100008f010000910100009201000090010000
    m_SmoothingGroup: 0
    m_Uv:
      m_UseWorldSpace: 0
      m_FlipU: 0
      m_FlipV: 0
      m_SwapUV: 0
      m_Fill: 1
      m_Scale: {x: 1, y: 1}
      m_Offset: {x: 0, y: 0}
      m_Rotation: 0
      m_Anchor: 9
    m_Material: {fileID: 2100000, guid: 31321ba15b8f8eb4c954353edc038b1d, type: 2}
    m_SubmeshIndex: 0
    m_ManualUV: 0
    elementGroup: 0
    m_TextureGroup: 2
  - m_Indexes: 930100009401000095010000
    m_SmoothingGroup: 0
    m_Uv:
      m_UseWorldSpace: 0
      m_FlipU: 0
      m_FlipV: 0
      m_SwapUV: 0
      m_Fill: 1
      m_Scale: {x: 1, y: 1}
      m_Offset: {x: 0, y: 0}
      m_Rotation: 0
      m_Anchor: 9
    m_Material: {fileID: 2100000, guid: 31321ba15b8f8eb4c954353edc038b1d, type: 2}
    m_SubmeshIndex: 0
    m_ManualUV: 0
    elementGroup: 0
    m_TextureGroup: 2
  - m_Indexes: 980100009701000096010000980100009901000097010000
    m_SmoothingGroup: 0
    m_Uv:
      m_UseWorldSpace: 0
      m_FlipU: 0
      m_FlipV: 0
      m_SwapUV: 0
      m_Fill: 1
      m_Scale: {x: 1, y: 1}
      m_Offset: {x: 0, y: 0}
      m_Rotation: 0
      m_Anchor: 9
    m_Material: {fileID: 2100000, guid: 31321ba15b8f8eb4c954353edc038b1d, type: 2}
    m_SubmeshIndex: 0
    m_ManualUV: 0
    elementGroup: 0
    m_TextureGroup: 2
  - m_Indexes: 9a0100009b0100009c010000
    m_SmoothingGroup: 0
    m_Uv:
      m_UseWorldSpace: 0
      m_FlipU: 0
      m_FlipV: 0
      m_SwapUV: 0
      m_Fill: 1
      m_Scale: {x: 1, y: 1}
      m_Offset: {x: 0, y: 0}
      m_Rotation: 0
      m_Anchor: 9
    m_Material: {fileID: 2100000, guid: 31321ba15b8f8eb4c954353edc038b1d, type: 2}
    m_SubmeshIndex: 0
    m_ManualUV: 0
    elementGroup: 0
    m_TextureGroup: 2
  - m_Indexes: 9f0100009e0100009d0100009f010000a00100009e010000
    m_SmoothingGroup: 0
    m_Uv:
      m_UseWorldSpace: 0
      m_FlipU: 0
      m_FlipV: 0
      m_SwapUV: 0
      m_Fill: 1
      m_Scale: {x: 1, y: 1}
      m_Offset: {x: 0, y: 0}
      m_Rotation: 0
      m_Anchor: 9
    m_Material: {fileID: 2100000, guid: 31321ba15b8f8eb4c954353edc038b1d, type: 2}
    m_SubmeshIndex: 0
    m_ManualUV: 0
    elementGroup: 0
    m_TextureGroup: 2
  - m_Indexes: a1010000a2010000a3010000
    m_SmoothingGroup: 0
    m_Uv:
      m_UseWorldSpace: 0
      m_FlipU: 0
      m_FlipV: 0
      m_SwapUV: 0
      m_Fill: 1
      m_Scale: {x: 1, y: 1}
      m_Offset: {x: 0, y: 0}
      m_Rotation: 0
      m_Anchor: 9
    m_Material: {fileID: 2100000, guid: 31321ba15b8f8eb4c954353edc038b1d, type: 2}
    m_SubmeshIndex: 0
    m_ManualUV: 0
    elementGroup: 0
    m_TextureGroup: 2
  - m_Indexes: a6010000a5010000a4010000a6010000a7010000a5010000
    m_SmoothingGroup: 0
    m_Uv:
      m_UseWorldSpace: 0
      m_FlipU: 0
      m_FlipV: 0
      m_SwapUV: 0
      m_Fill: 1
      m_Scale: {x: 1, y: 1}
      m_Offset: {x: 0, y: 0}
      m_Rotation: 0
      m_Anchor: 9
    m_Material: {fileID: 2100000, guid: 31321ba15b8f8eb4c954353edc038b1d, type: 2}
    m_SubmeshIndex: 0
    m_ManualUV: 0
    elementGroup: 0
    m_TextureGroup: 2
  - m_Indexes: a8010000a9010000aa010000
    m_SmoothingGroup: 0
    m_Uv:
      m_UseWorldSpace: 0
      m_FlipU: 0
      m_FlipV: 0
      m_SwapUV: 0
      m_Fill: 1
      m_Scale: {x: 1, y: 1}
      m_Offset: {x: 0, y: 0}
      m_Rotation: 0
      m_Anchor: 9
    m_Material: {fileID: 2100000, guid: 31321ba15b8f8eb4c954353edc038b1d, type: 2}
    m_SubmeshIndex: 0
    m_ManualUV: 0
    elementGroup: 0
    m_TextureGroup: 2
  - m_Indexes: ad010000ac010000ab010000ad010000ae010000ac010000
    m_SmoothingGroup: 0
    m_Uv:
      m_UseWorldSpace: 0
      m_FlipU: 0
      m_FlipV: 0
      m_SwapUV: 0
      m_Fill: 1
      m_Scale: {x: 1, y: 1}
      m_Offset: {x: 0, y: 0}
      m_Rotation: 0
      m_Anchor: 9
    m_Material: {fileID: 2100000, guid: 31321ba15b8f8eb4c954353edc038b1d, type: 2}
    m_SubmeshIndex: 0
    m_ManualUV: 0
    elementGroup: 0
    m_TextureGroup: 2
  - m_Indexes: af010000b0010000b1010000
    m_SmoothingGroup: 0
    m_Uv:
      m_UseWorldSpace: 0
      m_FlipU: 0
      m_FlipV: 0
      m_SwapUV: 0
      m_Fill: 1
      m_Scale: {x: 1, y: 1}
      m_Offset: {x: 0, y: 0}
      m_Rotation: 0
      m_Anchor: 9
    m_Material: {fileID: 2100000, guid: 31321ba15b8f8eb4c954353edc038b1d, type: 2}
    m_SubmeshIndex: 0
    m_ManualUV: 0
    elementGroup: 0
    m_TextureGroup: 2
  - m_Indexes: b2010000b3010000b4010000b3010000b5010000b4010000
    m_SmoothingGroup: 0
    m_Uv:
      m_UseWorldSpace: 0
      m_FlipU: 0
      m_FlipV: 0
      m_SwapUV: 0
      m_Fill: 1
      m_Scale: {x: 1, y: 1}
      m_Offset: {x: 0, y: 0}
      m_Rotation: 0
      m_Anchor: 9
    m_Material: {fileID: 2100000, guid: 31321ba15b8f8eb4c954353edc038b1d, type: 2}
    m_SubmeshIndex: 0
    m_ManualUV: 0
    elementGroup: 0
    m_TextureGroup: -1
  m_SharedVertices:
  - m_Vertices: 0000000029010000
  - m_Vertices: 01000000a0000000
  - m_Vertices: 02000000040000002b010000
  - m_Vertices: 0300000005000000a2000000
  - m_Vertices: 06000000080000002c0100002f01000031010000
  - m_Vertices: 0700000009000000a3000000a6000000a8000000
  - m_Vertices: 0a0000000c00000032010000
  - m_Vertices: 0b0000000d000000a9000000
  - m_Vertices: 0e0000001000000030010000330100003601000038010000
  - m_Vertices: 0f00000011000000a7000000aa000000ad000000af000000
  - m_Vertices: 120000001400000039010000
  - m_Vertices: 1300000015000000b0000000
  - m_Vertices: 1600000018000000370100003a0100003d0100003f010000
  - m_Vertices: 1700000019000000ae000000b1000000b4000000b6000000
  - m_Vertices: 1a0000001c00000040010000
  - m_Vertices: 1b0000001d000000b7000000
  - m_Vertices: 1e000000200000003e010000410100004401000046010000
  - m_Vertices: 1f00000021000000b5000000b8000000bb000000bd000000
  - m_Vertices: 220000002400000047010000
  - m_Vertices: 2300000025000000be000000
  - m_Vertices: 260000002800000045010000480100004b0100004d010000
  - m_Vertices: 2700000029000000bc000000bf000000c2000000c4000000
  - m_Vertices: 2a0000002c0000004e010000
  - m_Vertices: 2b0000002d000000c5000000
  - m_Vertices: 2e000000300000004c0100004f0100005201000054010000
  - m_Vertices: 2f00000031000000c3000000c6000000c9000000cb000000
  - m_Vertices: 320000003400000055010000
  - m_Vertices: 3300000035000000cc000000
  - m_Vertices: 36000000380000005301000056010000590100005b010000
  - m_Vertices: 3700000039000000ca000000cd000000d0000000d2000000
  - m_Vertices: 3a0000003c0000005c010000
  - m_Vertices: 3b0000003d000000d3000000
  - m_Vertices: 3e000000400000005a0100005d0100006001000062010000
  - m_Vertices: 3f00000041000000d1000000d4000000d7000000d9000000
  - m_Vertices: 420000004400000063010000
  - m_Vertices: 4300000045000000da000000
  - m_Vertices: 460000004800000061010000640100006701000069010000
  - m_Vertices: 4700000049000000d8000000db000000de000000e0000000
  - m_Vertices: 4a0000004c0000006a010000
  - m_Vertices: 4b0000004d000000e1000000
  - m_Vertices: 4e00000050000000680100006b0100006e01000070010000
  - m_Vertices: 4f00000051000000df000000e2000000e5000000e7000000
  - m_Vertices: 520000005400000071010000
  - m_Vertices: 5300000055000000e8000000
  - m_Vertices: 56000000580000006f010000720100007501000077010000
  - m_Vertices: 5700000059000000e6000000e9000000ec000000ee000000
  - m_Vertices: 5a0000005c00000078010000
  - m_Vertices: 5b0000005d000000ef000000
  - m_Vertices: 5e0000006000000076010000790100007c0100007e010000
  - m_Vertices: 5f00000061000000ed000000f0000000f3000000f5000000
  - m_Vertices: 62000000640000007f010000
  - m_Vertices: 6300000065000000f6000000
  - m_Vertices: 66000000680000007d010000800100008301000085010000
  - m_Vertices: 6700000069000000f4000000f7000000fa000000fc000000
  - m_Vertices: 6a0000006c00000086010000
  - m_Vertices: 6b0000006d000000fd000000
  - m_Vertices: 6e0000007000000084010000870100008a0100008c010000
  - m_Vertices: 6f00000071000000fb000000fe0000000101000003010000
  - m_Vertices: 72000000740000008d010000
  - m_Vertices: 730000007500000004010000
  - m_Vertices: 76000000780000008b0100008e0100009101000093010000
  - m_Vertices: 77000000790000000201000005010000080100000a010000
  - m_Vertices: 7a0000007c00000094010000
  - m_Vertices: 7b0000007d0000000b010000
  - m_Vertices: 7e000000800000009201000095010000980100009a010000
  - m_Vertices: 7f00000081000000090100000c0100000f01000011010000
  - m_Vertices: 82000000840000009b010000
  - m_Vertices: 830000008500000012010000
  - m_Vertices: 8600000088000000990100009c0100009f010000a1010000
  - m_Vertices: 870000008900000010010000130100001601000018010000
  - m_Vertices: 8a0000008c000000a2010000
  - m_Vertices: 8b0000008d00000019010000
  - m_Vertices: 8e00000090000000a0010000a3010000a6010000a8010000
  - m_Vertices: 8f00000091000000170100001a0100001d0100001f010000
  - m_Vertices: 9200000094000000a9010000
  - m_Vertices: 930000009500000020010000
  - m_Vertices: 9600000098000000a7010000aa010000ad010000af010000
  - m_Vertices: 97000000990000001e010000210100002401000026010000
  - m_Vertices: 9a0000009c000000b0010000
  - m_Vertices: 9b0000009d00000027010000
  - m_Vertices: 9e000000ae010000b1010000b5010000
  - m_Vertices: 9f0000002501000028010000b4010000
  - m_Vertices: a1000000a4000000
  - m_Vertices: a5000000ab000000
  - m_Vertices: ac000000b2000000
  - m_Vertices: b3000000b9000000
  - m_Vertices: ba000000c0000000
  - m_Vertices: c1000000c7000000
  - m_Vertices: c8000000ce000000
  - m_Vertices: cf000000d5000000
  - m_Vertices: d6000000dc000000
  - m_Vertices: dd000000e3000000
  - m_Vertices: e4000000ea000000
  - m_Vertices: eb000000f1000000
  - m_Vertices: f2000000f8000000
  - m_Vertices: f9000000ff000000
  - m_Vertices: 0001000006010000
  - m_Vertices: 070100000d010000
  - m_Vertices: 0e01000014010000
  - m_Vertices: 150100001b010000
  - m_Vertices: 1c01000022010000
  - m_Vertices: 23010000b2010000
  - m_Vertices: 2a0100002d010000
  - m_Vertices: 2e01000034010000
  - m_Vertices: 350100003b010000
  - m_Vertices: 3c01000042010000
  - m_Vertices: 4301000049010000
  - m_Vertices: 4a01000050010000
  - m_Vertices: 5101000057010000
  - m_Vertices: 580100005e010000
  - m_Vertices: 5f01000065010000
  - m_Vertices: 660100006c010000
  - m_Vertices: 6d01000073010000
  - m_Vertices: 740100007a010000
  - m_Vertices: 7b01000081010000
  - m_Vertices: 8201000088010000
  - m_Vertices: 890100008f010000
  - m_Vertices: 9001000096010000
  - m_Vertices: 970100009d010000
  - m_Vertices: 9e010000a4010000
  - m_Vertices: a5010000ab010000
  - m_Vertices: ac010000b3010000
  m_SharedTextures: []
  m_Positions:
  - {x: 0, y: 0, z: 0}
  - {x: -4, y: 0, z: 0}
  - {x: 0, y: 0.125, z: 0}
  - {x: -4, y: 0.125, z: 0}
  - {x: 0, y: 0.125, z: 0}
  - {x: -4, y: 0.125, z: 0}
  - {x: 0, y: 0.125, z: 0.2}
  - {x: -4, y: 0.125, z: 0.2}
  - {x: 0, y: 0.125, z: 0.2}
  - {x: -4, y: 0.125, z: 0.2}
  - {x: 0, y: 0.25, z: 0.2}
  - {x: -4, y: 0.25, z: 0.2}
  - {x: 0, y: 0.25, z: 0.2}
  - {x: -4, y: 0.25, z: 0.2}
  - {x: 0, y: 0.25, z: 0.4}
  - {x: -4, y: 0.25, z: 0.4}
  - {x: 0, y: 0.25, z: 0.4}
  - {x: -4, y: 0.25, z: 0.4}
  - {x: 0, y: 0.375, z: 0.4}
  - {x: -4, y: 0.375, z: 0.4}
  - {x: 0, y: 0.375, z: 0.4}
  - {x: -4, y: 0.375, z: 0.4}
  - {x: 0, y: 0.375, z: 0.6}
  - {x: -4, y: 0.375, z: 0.6}
  - {x: 0, y: 0.375, z: 0.6}
  - {x: -4, y: 0.375, z: 0.6}
  - {x: 0, y: 0.5, z: 0.6}
  - {x: -4, y: 0.5, z: 0.6}
  - {x: 0, y: 0.5, z: 0.6}
  - {x: -4, y: 0.5, z: 0.6}
  - {x: 0, y: 0.5, z: 0.8}
  - {x: -4, y: 0.5, z: 0.8}
  - {x: 0, y: 0.5, z: 0.8}
  - {x: -4, y: 0.5, z: 0.8}
  - {x: 0, y: 0.625, z: 0.8}
  - {x: -4, y: 0.625, z: 0.8}
  - {x: 0, y: 0.625, z: 0.8}
  - {x: -4, y: 0.625, z: 0.8}
  - {x: 0, y: 0.625, z: 1}
  - {x: -4, y: 0.625, z: 1}
  - {x: 0, y: 0.625, z: 1}
  - {x: -4, y: 0.625, z: 1}
  - {x: 0, y: 0.75, z: 1}
  - {x: -4, y: 0.75, z: 1}
  - {x: 0, y: 0.75, z: 1}
  - {x: -4, y: 0.75, z: 1}
  - {x: 0, y: 0.75, z: 1.2}
  - {x: -4, y: 0.75, z: 1.2}
  - {x: 0, y: 0.75, z: 1.2}
  - {x: -4, y: 0.75, z: 1.2}
  - {x: 0, y: 0.875, z: 1.2}
  - {x: -4, y: 0.875, z: 1.2}
  - {x: 0, y: 0.875, z: 1.2}
  - {x: -4, y: 0.875, z: 1.2}
  - {x: 0, y: 0.875, z: 1.4}
  - {x: -4, y: 0.875, z: 1.4}
  - {x: 0, y: 0.875, z: 1.4}
  - {x: -4, y: 0.875, z: 1.4}
  - {x: 0, y: 1, z: 1.4}
  - {x: -4, y: 1, z: 1.4}
  - {x: 0, y: 1, z: 1.4}
  - {x: -4, y: 1, z: 1.4}
  - {x: 0, y: 1, z: 1.6}
  - {x: -4, y: 1, z: 1.6}
  - {x: 0, y: 1, z: 1.6}
  - {x: -4, y: 1, z: 1.6}
  - {x: 0, y: 1.125, z: 1.6}
  - {x: -4, y: 1.125, z: 1.6}
  - {x: 0, y: 1.125, z: 1.6}
  - {x: -4, y: 1.125, z: 1.6}
  - {x: 0, y: 1.125, z: 1.8}
  - {x: -4, y: 1.125, z: 1.8}
  - {x: 0, y: 1.125, z: 1.8}
  - {x: -4, y: 1.125, z: 1.8}
  - {x: 0, y: 1.25, z: 1.8}
  - {x: -4, y: 1.25, z: 1.8}
  - {x: 0, y: 1.25, z: 1.8}
  - {x: -4, y: 1.25, z: 1.8}
  - {x: 0, y: 1.25, z: 2}
  - {x: -4, y: 1.25, z: 2}
  - {x: 0, y: 1.25, z: 2}
  - {x: -4, y: 1.25, z: 2}
  - {x: 0, y: 1.375, z: 2}
  - {x: -4, y: 1.375, z: 2}
  - {x: 0, y: 1.375, z: 2}
  - {x: -4, y: 1.375, z: 2}
  - {x: 0, y: 1.375, z: 2.2}
  - {x: -4, y: 1.375, z: 2.2}
  - {x: 0, y: 1.375, z: 2.2}
  - {x: -4, y: 1.375, z: 2.2}
  - {x: 0, y: 1.5, z: 2.2}
  - {x: -4, y: 1.5, z: 2.2}
  - {x: 0, y: 1.5, z: 2.2}
  - {x: -4, y: 1.5, z: 2.2}
  - {x: 0, y: 1.5, z: 2.4}
  - {x: -4, y: 1.5, z: 2.4}
  - {x: 0, y: 1.5, z: 2.4}
  - {x: -4, y: 1.5, z: 2.4}
  - {x: 0, y: 1.625, z: 2.4}
  - {x: -4, y: 1.625, z: 2.4}
  - {x: 0, y: 1.625, z: 2.4}
  - {x: -4, y: 1.625, z: 2.4}
  - {x: 0, y: 1.625, z: 2.6}
  - {x: -4, y: 1.625, z: 2.6}
  - {x: 0, y: 1.625, z: 2.6}
  - {x: -4, y: 1.625, z: 2.6}
  - {x: 0, y: 1.75, z: 2.6}
  - {x: -4, y: 1.75, z: 2.6}
  - {x: 0, y: 1.75, z: 2.6}
  - {x: -4, y: 1.75, z: 2.6}
  - {x: 0, y: 1.75, z: 2.8}
  - {x: -4, y: 1.75, z: 2.8}
  - {x: 0, y: 1.75, z: 2.8}
  - {x: -4, y: 1.75, z: 2.8}
  - {x: 0, y: 1.875, z: 2.8}
  - {x: -4, y: 1.875, z: 2.8}
  - {x: 0, y: 1.875, z: 2.8}
  - {x: -4, y: 1.875, z: 2.8}
  - {x: 0, y: 1.875, z: 3}
  - {x: -4, y: 1.875, z: 3}
  - {x: 0, y: 1.875, z: 3}
  - {x: -4, y: 1.875, z: 3}
  - {x: 0, y: 2, z: 3}
  - {x: -4, y: 2, z: 3}
  - {x: 0, y: 2, z: 3}
  - {x: -4, y: 2, z: 3}
  - {x: 0, y: 2, z: 3.2}
  - {x: -4, y: 2, z: 3.2}
  - {x: 0, y: 2, z: 3.2}
  - {x: -4, y: 2, z: 3.2}
  - {x: 0, y: 2.125, z: 3.2}
  - {x: -4, y: 2.125, z: 3.2}
  - {x: 0, y: 2.125, z: 3.2}
  - {x: -4, y: 2.125, z: 3.2}
  - {x: 0, y: 2.125, z: 3.4}
  - {x: -4, y: 2.125, z: 3.4}
  - {x: 0, y: 2.125, z: 3.4}
  - {x: -4, y: 2.125, z: 3.4}
  - {x: 0, y: 2.25, z: 3.4}
  - {x: -4, y: 2.25, z: 3.4}
  - {x: 0, y: 2.25, z: 3.4}
  - {x: -4, y: 2.25, z: 3.4}
  - {x: 0, y: 2.25, z: 3.6}
  - {x: -4, y: 2.25, z: 3.6}
  - {x: 0, y: 2.25, z: 3.6}
  - {x: -4, y: 2.25, z: 3.6}
  - {x: 0, y: 2.375, z: 3.6}
  - {x: -4, y: 2.375, z: 3.6}
  - {x: 0, y: 2.375, z: 3.6}
  - {x: -4, y: 2.375, z: 3.6}
  - {x: 0, y: 2.375, z: 3.8}
  - {x: -4, y: 2.375, z: 3.8}
  - {x: 0, y: 2.375, z: 3.8}
  - {x: -4, y: 2.375, z: 3.8}
  - {x: 0, y: 2.5, z: 3.8}
  - {x: -4, y: 2.5, z: 3.8}
  - {x: 0, y: 2.5, z: 3.8}
  - {x: -4, y: 2.5, z: 3.8}
  - {x: 0, y: 2.5, z: 4}
  - {x: -4, y: 2.5, z: 4}
  - {x: -4, y: 0, z: 0}
  - {x: -4, y: 0, z: 0.2}
  - {x: -4, y: 0.125, z: 0}
  - {x: -4, y: 0.125, z: 0.2}
  - {x: -4, y: 0, z: 0.2}
  - {x: -4, y: 0, z: 0.4}
  - {x: -4, y: 0.125, z: 0.2}
  - {x: -4, y: 0.25, z: 0.4}
  - {x: -4, y: 0.125, z: 0.2}
  - {x: -4, y: 0.25, z: 0.2}
  - {x: -4, y: 0.25, z: 0.4}
  - {x: -4, y: 0, z: 0.4}
  - {x: -4, y: 0, z: 0.6}
  - {x: -4, y: 0.25, z: 0.4}
  - {x: -4, y: 0.375, z: 0.6}
  - {x: -4, y: 0.25, z: 0.4}
  - {x: -4, y: 0.375, z: 0.4}
  - {x: -4, y: 0.375, z: 0.6}
  - {x: -4, y: 0, z: 0.6}
  - {x: -4, y: 0, z: 0.8}
  - {x: -4, y: 0.375, z: 0.6}
  - {x: -4, y: 0.5, z: 0.8}
  - {x: -4, y: 0.375, z: 0.6}
  - {x: -4, y: 0.5, z: 0.6}
  - {x: -4, y: 0.5, z: 0.8}
  - {x: -4, y: 0, z: 0.8}
  - {x: -4, y: 0, z: 1}
  - {x: -4, y: 0.5, z: 0.8}
  - {x: -4, y: 0.625, z: 1}
  - {x: -4, y: 0.5, z: 0.8}
  - {x: -4, y: 0.625, z: 0.8}
  - {x: -4, y: 0.625, z: 1}
  - {x: -4, y: 0, z: 1}
  - {x: -4, y: 0, z: 1.2}
  - {x: -4, y: 0.625, z: 1}
  - {x: -4, y: 0.75, z: 1.2}
  - {x: -4, y: 0.625, z: 1}
  - {x: -4, y: 0.75, z: 1}
  - {x: -4, y: 0.75, z: 1.2}
  - {x: -4, y: 0, z: 1.2}
  - {x: -4, y: 0, z: 1.4}
  - {x: -4, y: 0.75, z: 1.2}
  - {x: -4, y: 0.875, z: 1.4}
  - {x: -4, y: 0.75, z: 1.2}
  - {x: -4, y: 0.875, z: 1.2}
  - {x: -4, y: 0.875, z: 1.4}
  - {x: -4, y: 0, z: 1.4}
  - {x: -4, y: 0, z: 1.6}
  - {x: -4, y: 0.875, z: 1.4}
  - {x: -4, y: 1, z: 1.6}
  - {x: -4, y: 0.875, z: 1.4}
  - {x: -4, y: 1, z: 1.4}
  - {x: -4, y: 1, z: 1.6}
  - {x: -4, y: 0, z: 1.6}
  - {x: -4, y: 0, z: 1.8}
  - {x: -4, y: 1, z: 1.6}
  - {x: -4, y: 1.125, z: 1.8}
  - {x: -4, y: 1, z: 1.6}
  - {x: -4, y: 1.125, z: 1.6}
  - {x: -4, y: 1.125, z: 1.8}
  - {x: -4, y: 0, z: 1.8}
  - {x: -4, y: 0, z: 2}
  - {x: -4, y: 1.125, z: 1.8}
  - {x: -4, y: 1.25, z: 2}
  - {x: -4, y: 1.125, z: 1.8}
  - {x: -4, y: 1.25, z: 1.8}
  - {x: -4, y: 1.25, z: 2}
  - {x: -4, y: 0, z: 2}
  - {x: -4, y: 0, z: 2.2}
  - {x: -4, y: 1.25, z: 2}
  - {x: -4, y: 1.375, z: 2.2}
  - {x: -4, y: 1.25, z: 2}
  - {x: -4, y: 1.375, z: 2}
  - {x: -4, y: 1.375, z: 2.2}
  - {x: -4, y: 0, z: 2.2}
  - {x: -4, y: 0, z: 2.4}
  - {x: -4, y: 1.375, z: 2.2}
  - {x: -4, y: 1.5, z: 2.4}
  - {x: -4, y: 1.375, z: 2.2}
  - {x: -4, y: 1.5, z: 2.2}
  - {x: -4, y: 1.5, z: 2.4}
  - {x: -4, y: 0, z: 2.4}
  - {x: -4, y: 0, z: 2.6}
  - {x: -4, y: 1.5, z: 2.4}
  - {x: -4, y: 1.625, z: 2.6}
  - {x: -4, y: 1.5, z: 2.4}
  - {x: -4, y: 1.625, z: 2.4}
  - {x: -4, y: 1.625, z: 2.6}
  - {x: -4, y: 0, z: 2.6}
  - {x: -4, y: 0, z: 2.8}
  - {x: -4, y: 1.625, z: 2.6}
  - {x: -4, y: 1.75, z: 2.8}
  - {x: -4, y: 1.625, z: 2.6}
  - {x: -4, y: 1.75, z: 2.6}
  - {x: -4, y: 1.75, z: 2.8}
  - {x: -4, y: 0, z: 2.8}
  - {x: -4, y: 0, z: 3}
  - {x: -4, y: 1.75, z: 2.8}
  - {x: -4, y: 1.875, z: 3}
  - {x: -4, y: 1.75, z: 2.8}
  - {x: -4, y: 1.875, z: 2.8}
  - {x: -4, y: 1.875, z: 3}
  - {x: -4, y: 0, z: 3}
  - {x: -4, y: 0, z: 3.2}
  - {x: -4, y: 1.875, z: 3}
  - {x: -4, y: 2, z: 3.2}
  - {x: -4, y: 1.875, z: 3}
  - {x: -4, y: 2, z: 3}
  - {x: -4, y: 2, z: 3.2}
  - {x: -4, y: 0, z: 3.2}
  - {x: -4, y: 0, z: 3.4}
  - {x: -4, y: 2, z: 3.2}
  - {x: -4, y: 2.125, z: 3.4}
  - {x: -4, y: 2, z: 3.2}
  - {x: -4, y: 2.125, z: 3.2}
  - {x: -4, y: 2.125, z: 3.4}
  - {x: -4, y: 0, z: 3.4}
  - {x: -4, y: 0, z: 3.6}
  - {x: -4, y: 2.125, z: 3.4}
  - {x: -4, y: 2.25, z: 3.6}
  - {x: -4, y: 2.125, z: 3.4}
  - {x: -4, y: 2.25, z: 3.4}
  - {x: -4, y: 2.25, z: 3.6}
  - {x: -4, y: 0, z: 3.6}
  - {x: -4, y: 0, z: 3.8}
  - {x: -4, y: 2.25, z: 3.6}
  - {x: -4, y: 2.375, z: 3.8}
  - {x: -4, y: 2.25, z: 3.6}
  - {x: -4, y: 2.375, z: 3.6}
  - {x: -4, y: 2.375, z: 3.8}
  - {x: -4, y: 0, z: 3.8}
  - {x: -4, y: 0, z: 4}
  - {x: -4, y: 2.375, z: 3.8}
  - {x: -4, y: 2.5, z: 4}
  - {x: -4, y: 2.375, z: 3.8}
  - {x: -4, y: 2.5, z: 3.8}
  - {x: -4, y: 2.5, z: 4}
  - {x: 0, y: 0, z: 0}
  - {x: 0, y: 0, z: 0.2}
  - {x: 0, y: 0.125, z: 0}
  - {x: 0, y: 0.125, z: 0.2}
  - {x: 0, y: 0, z: 0.2}
  - {x: 0, y: 0, z: 0.4}
  - {x: 0, y: 0.125, z: 0.2}
  - {x: 0, y: 0.25, z: 0.4}
  - {x: 0, y: 0.125, z: 0.2}
  - {x: 0, y: 0.25, z: 0.2}
  - {x: 0, y: 0.25, z: 0.4}
  - {x: 0, y: 0, z: 0.4}
  - {x: 0, y: 0, z: 0.6}
  - {x: 0, y: 0.25, z: 0.4}
  - {x: 0, y: 0.375, z: 0.6}
  - {x: 0, y: 0.25, z: 0.4}
  - {x: 0, y: 0.375, z: 0.4}
  - {x: 0, y: 0.375, z: 0.6}
  - {x: 0, y: 0, z: 0.6}
  - {x: 0, y: 0, z: 0.8}
  - {x: 0, y: 0.375, z: 0.6}
  - {x: 0, y: 0.5, z: 0.8}
  - {x: 0, y: 0.375, z: 0.6}
  - {x: 0, y: 0.5, z: 0.6}
  - {x: 0, y: 0.5, z: 0.8}
  - {x: 0, y: 0, z: 0.8}
  - {x: 0, y: 0, z: 1}
  - {x: 0, y: 0.5, z: 0.8}
  - {x: 0, y: 0.625, z: 1}
  - {x: 0, y: 0.5, z: 0.8}
  - {x: 0, y: 0.625, z: 0.8}
  - {x: 0, y: 0.625, z: 1}
  - {x: 0, y: 0, z: 1}
  - {x: 0, y: 0, z: 1.2}
  - {x: 0, y: 0.625, z: 1}
  - {x: 0, y: 0.75, z: 1.2}
  - {x: 0, y: 0.625, z: 1}
  - {x: 0, y: 0.75, z: 1}
  - {x: 0, y: 0.75, z: 1.2}
  - {x: 0, y: 0, z: 1.2}
  - {x: 0, y: 0, z: 1.4}
  - {x: 0, y: 0.75, z: 1.2}
  - {x: 0, y: 0.875, z: 1.4}
  - {x: 0, y: 0.75, z: 1.2}
  - {x: 0, y: 0.875, z: 1.2}
  - {x: 0, y: 0.875, z: 1.4}
  - {x: 0, y: 0, z: 1.4}
  - {x: 0, y: 0, z: 1.6}
  - {x: 0, y: 0.875, z: 1.4}
  - {x: 0, y: 1, z: 1.6}
  - {x: 0, y: 0.875, z: 1.4}
  - {x: 0, y: 1, z: 1.4}
  - {x: 0, y: 1, z: 1.6}
  - {x: 0, y: 0, z: 1.6}
  - {x: 0, y: 0, z: 1.8}
  - {x: 0, y: 1, z: 1.6}
  - {x: 0, y: 1.125, z: 1.8}
  - {x: 0, y: 1, z: 1.6}
  - {x: 0, y: 1.125, z: 1.6}
  - {x: 0, y: 1.125, z: 1.8}
  - {x: 0, y: 0, z: 1.8}
  - {x: 0, y: 0, z: 2}
  - {x: 0, y: 1.125, z: 1.8}
  - {x: 0, y: 1.25, z: 2}
  - {x: 0, y: 1.125, z: 1.8}
  - {x: 0, y: 1.25, z: 1.8}
  - {x: 0, y: 1.25, z: 2}
  - {x: 0, y: 0, z: 2}
  - {x: 0, y: 0, z: 2.2}
  - {x: 0, y: 1.25, z: 2}
  - {x: 0, y: 1.375, z: 2.2}
  - {x: 0, y: 1.25, z: 2}
  - {x: 0, y: 1.375, z: 2}
  - {x: 0, y: 1.375, z: 2.2}
  - {x: 0, y: 0, z: 2.2}
  - {x: 0, y: 0, z: 2.4}
  - {x: 0, y: 1.375, z: 2.2}
  - {x: 0, y: 1.5, z: 2.4}
  - {x: 0, y: 1.375, z: 2.2}
  - {x: 0, y: 1.5, z: 2.2}
  - {x: 0, y: 1.5, z: 2.4}
  - {x: 0, y: 0, z: 2.4}
  - {x: 0, y: 0, z: 2.6}
  - {x: 0, y: 1.5, z: 2.4}
  - {x: 0, y: 1.625, z: 2.6}
  - {x: 0, y: 1.5, z: 2.4}
  - {x: 0, y: 1.625, z: 2.4}
  - {x: 0, y: 1.625, z: 2.6}
  - {x: 0, y: 0, z: 2.6}
  - {x: 0, y: 0, z: 2.8}
  - {x: 0, y: 1.625, z: 2.6}
  - {x: 0, y: 1.75, z: 2.8}
  - {x: 0, y: 1.625, z: 2.6}
  - {x: 0, y: 1.75, z: 2.6}
  - {x: 0, y: 1.75, z: 2.8}
  - {x: 0, y: 0, z: 2.8}
  - {x: 0, y: 0, z: 3}
  - {x: 0, y: 1.75, z: 2.8}
  - {x: 0, y: 1.875, z: 3}
  - {x: 0, y: 1.75, z: 2.8}
  - {x: 0, y: 1.875, z: 2.8}
  - {x: 0, y: 1.875, z: 3}
  - {x: 0, y: 0, z: 3}
  - {x: 0, y: 0, z: 3.2}
  - {x: 0, y: 1.875, z: 3}
  - {x: 0, y: 2, z: 3.2}
  - {x: 0, y: 1.875, z: 3}
  - {x: 0, y: 2, z: 3}
  - {x: 0, y: 2, z: 3.2}
  - {x: 0, y: 0, z: 3.2}
  - {x: 0, y: 0, z: 3.4}
  - {x: 0, y: 2, z: 3.2}
  - {x: 0, y: 2.125, z: 3.4}
  - {x: 0, y: 2, z: 3.2}
  - {x: 0, y: 2.125, z: 3.2}
  - {x: 0, y: 2.125, z: 3.4}
  - {x: 0, y: 0, z: 3.4}
  - {x: 0, y: 0, z: 3.6}
  - {x: 0, y: 2.125, z: 3.4}
  - {x: 0, y: 2.25, z: 3.6}
  - {x: 0, y: 2.125, z: 3.4}
  - {x: 0, y: 2.25, z: 3.4}
  - {x: 0, y: 2.25, z: 3.6}
  - {x: 0, y: 0, z: 3.6}
  - {x: 0, y: 0, z: 3.8}
  - {x: 0, y: 2.25, z: 3.6}
  - {x: 0, y: 2.375, z: 3.8}
  - {x: 0, y: 2.25, z: 3.6}
  - {x: 0, y: 2.375, z: 3.6}
  - {x: 0, y: 2.375, z: 3.8}
  - {x: 0, y: 0, z: 3.8}
  - {x: 0, y: 0, z: 4}
  - {x: 0, y: 2.375, z: 3.8}
  - {x: 0, y: 2.5, z: 4}
  - {x: 0, y: 2.375, z: 3.8}
  - {x: 0, y: 2.5, z: 3.8}
  - {x: 0, y: 2.5, z: 4}
  - {x: -4, y: 0, z: 4}
  - {x: 0, y: 0, z: 4}
  - {x: -4, y: 2.5, z: 4}
  - {x: 0, y: 2.5, z: 4}
  m_Textures0:
  - {x: 0, y: 0}
  - {x: -4, y: 0}
  - {x: 0, y: 0.125}
  - {x: -4, y: 0.125}
  - {x: 0, y: 0}
  - {x: -4, y: 0}
  - {x: 0, y: 0.2}
  - {x: -4, y: 0.2}
  - {x: 0, y: 0.125}
  - {x: -4, y: 0.125}
  - {x: 0, y: 0.25}
  - {x: -4, y: 0.25}
  - {x: 0, y: 0.2}
  - {x: -4, y: 0.2}
  - {x: 0, y: 0.4}
  - {x: -4, y: 0.4}
  - {x: 0, y: 0.25}
  - {x: -4, y: 0.25}
  - {x: 0, y: 0.375}
  - {x: -4, y: 0.375}
  - {x: 0, y: 0.4}
  - {x: -4, y: 0.4}
  - {x: 0, y: 0.6}
  - {x: -4, y: 0.6}
  - {x: 0, y: 0.375}
  - {x: -4, y: 0.375}
  - {x: 0, y: 0.5}
  - {x: -4, y: 0.5}
  - {x: 0, y: 0.6}
  - {x: -4, y: 0.6}
  - {x: 0, y: 0.8}
  - {x: -4, y: 0.8}
  - {x: 0, y: 0.5}
  - {x: -4, y: 0.5}
  - {x: 0, y: 0.625}
  - {x: -4, y: 0.625}
  - {x: 0, y: 0.8}
  - {x: -4, y: 0.8}
  - {x: 0, y: 1}
  - {x: -4, y: 1}
  - {x: 0, y: 0.625}
  - {x: -4, y: 0.625}
  - {x: 0, y: 0.75}
  - {x: -4, y: 0.75}
  - {x: 0, y: 1}
  - {x: -4, y: 1}
  - {x: 0, y: 1.2}
  - {x: -4, y: 1.2}
  - {x: 0, y: 0.75}
  - {x: -4, y: 0.75}
  - {x: 0, y: 0.875}
  - {x: -4, y: 0.875}
  - {x: 0, y: 1.2}
  - {x: -4, y: 1.2}
  - {x: 0, y: 1.4}
  - {x: -4, y: 1.4}
  - {x: 0, y: 0.875}
  - {x: -4, y: 0.875}
  - {x: 0, y: 1}
  - {x: -4, y: 1}
  - {x: 0, y: 1.4}
  - {x: -4, y: 1.4}
  - {x: 0, y: 1.6}
  - {x: -4, y: 1.6}
  - {x: 0, y: 1}
  - {x: -4, y: 1}
  - {x: 0, y: 1.125}
  - {x: -4, y: 1.125}
  - {x: 0, y: 1.6}
  - {x: -4, y: 1.6}
  - {x: 0, y: 1.8}
  - {x: -4, y: 1.8}
  - {x: 0, y: 1.125}
  - {x: -4, y: 1.125}
  - {x: 0, y: 1.25}
  - {x: -4, y: 1.25}
  - {x: 0, y: 1.8}
  - {x: -4, y: 1.8}
  - {x: 0, y: 2}
  - {x: -4, y: 2}
  - {x: 0, y: 1.25}
  - {x: -4, y: 1.25}
  - {x: 0, y: 1.375}
  - {x: -4, y: 1.375}
  - {x: 0, y: 2}
  - {x: -4, y: 2}
  - {x: 0, y: 2.2}
  - {x: -4, y: 2.2}
  - {x: 0, y: 1.375}
  - {x: -4, y: 1.375}
  - {x: 0, y: 1.5}
  - {x: -4, y: 1.5}
  - {x: 0, y: 2.2}
  - {x: -4, y: 2.2}
  - {x: 0, y: 2.4}
  - {x: -4, y: 2.4}
  - {x: 0, y: 1.5}
  - {x: -4, y: 1.5}
  - {x: 0, y: 1.625}
  - {x: -4, y: 1.625}
  - {x: 0, y: 2.4}
  - {x: -4, y: 2.4}
  - {x: 0, y: 2.6}
  - {x: -4, y: 2.6}
  - {x: 0, y: 1.625}
  - {x: -4, y: 1.625}
  - {x: 0, y: 1.75}
  - {x: -4, y: 1.75}
  - {x: 0, y: 2.6}
  - {x: -4, y: 2.6}
  - {x: 0, y: 2.8}
  - {x: -4, y: 2.8}
  - {x: 0, y: 1.75}
  - {x: -4, y: 1.75}
  - {x: 0, y: 1.875}
  - {x: -4, y: 1.875}
  - {x: 0, y: 2.8}
  - {x: -4, y: 2.8}
  - {x: 0, y: 3}
  - {x: -4, y: 3}
  - {x: 0, y: 1.875}
  - {x: -4, y: 1.875}
  - {x: 0, y: 2}
  - {x: -4, y: 2}
  - {x: 0, y: 3}
  - {x: -4, y: 3}
  - {x: 0, y: 3.2}
  - {x: -4, y: 3.2}
  - {x: 0, y: 2}
  - {x: -4, y: 2}
  - {x: 0, y: 2.125}
  - {x: -4, y: 2.125}
  - {x: 0, y: 3.2}
  - {x: -4, y: 3.2}
  - {x: 0, y: 3.4}
  - {x: -4, y: 3.4}
  - {x: 0, y: 2.125}
  - {x: -4, y: 2.125}
  - {x: 0, y: 2.25}
  - {x: -4, y: 2.25}
  - {x: 0, y: 3.4}
  - {x: -4, y: 3.4}
  - {x: 0, y: 3.6}
  - {x: -4, y: 3.6}
  - {x: 0, y: 2.25}
  - {x: -4, y: 2.25}
  - {x: 0, y: 2.375}
  - {x: -4, y: 2.375}
  - {x: 0, y: 3.6}
  - {x: -4, y: 3.6}
  - {x: 0, y: 3.8}
  - {x: -4, y: 3.8}
  - {x: 0, y: 2.375}
  - {x: -4, y: 2.375}
  - {x: 0, y: 2.5}
  - {x: -4, y: 2.5}
  - {x: 0, y: 3.8}
  - {x: -4, y: 3.8}
  - {x: 0, y: 4}
  - {x: -4, y: 4}
  - {x: 0, y: 0}
  - {x: -0.2, y: 0}
  - {x: 0, y: 0.125}
  - {x: -0.2, y: 0.125}
  - {x: -0.2, y: 0}
  - {x: -0.4, y: 0}
  - {x: -0.2, y: 0.125}
  - {x: -0.4, y: 0.25}
  - {x: -0.2, y: 0.125}
  - {x: -0.2, y: 0.25}
  - {x: -0.4, y: 0.25}
  - {x: -0.4, y: 0}
  - {x: -0.6, y: 0}
  - {x: -0.4, y: 0.25}
  - {x: -0.6, y: 0.375}
  - {x: -0.4, y: 0.25}
  - {x: -0.4, y: 0.375}
  - {x: -0.6, y: 0.375}
  - {x: -0.6, y: 0}
  - {x: -0.8, y: 0}
  - {x: -0.6, y: 0.375}
  - {x: -0.8, y: 0.5}
  - {x: -0.6, y: 0.375}
  - {x: -0.6, y: 0.5}
  - {x: -0.8, y: 0.5}
  - {x: -0.8, y: 0}
  - {x: -1, y: 0}
  - {x: -0.8, y: 0.5}
  - {x: -1, y: 0.625}
  - {x: -0.8, y: 0.5}
  - {x: -0.8, y: 0.625}
  - {x: -1, y: 0.625}
  - {x: -1, y: 0}
  - {x: -1.2, y: 0}
  - {x: -1, y: 0.625}
  - {x: -1.2, y: 0.75}
  - {x: -1, y: 0.625}
  - {x: -1, y: 0.75}
  - {x: -1.2, y: 0.75}
  - {x: -1.2, y: 0}
  - {x: -1.4, y: 0}
  - {x: -1.2, y: 0.75}
  - {x: -1.4, y: 0.875}
  - {x: -1.2, y: 0.75}
  - {x: -1.2, y: 0.875}
  - {x: -1.4, y: 0.875}
  - {x: -1.4, y: 0}
  - {x: -1.6, y: 0}
  - {x: -1.4, y: 0.875}
  - {x: -1.6, y: 1}
  - {x: -1.4, y: 0.875}
  - {x: -1.4, y: 1}
  - {x: -1.6, y: 1}
  - {x: -1.6, y: 0}
  - {x: -1.8, y: 0}
  - {x: -1.6, y: 1}
  - {x: -1.8, y: 1.125}
  - {x: -1.6, y: 1}
  - {x: -1.6, y: 1.125}
  - {x: -1.8, y: 1.125}
  - {x: -1.8, y: 0}
  - {x: -2, y: 0}
  - {x: -1.8, y: 1.125}
  - {x: -2, y: 1.25}
  - {x: -1.8, y: 1.125}
  - {x: -1.8, y: 1.25}
  - {x: -2, y: 1.25}
  - {x: -2, y: 0}
  - {x: -2.2, y: 0}
  - {x: -2, y: 1.25}
  - {x: -2.2, y: 1.375}
  - {x: -2, y: 1.25}
  - {x: -2, y: 1.375}
  - {x: -2.2, y: 1.375}
  - {x: -2.2, y: 0}
  - {x: -2.4, y: 0}
  - {x: -2.2, y: 1.375}
  - {x: -2.4, y: 1.5}
  - {x: -2.2, y: 1.375}
  - {x: -2.2, y: 1.5}
  - {x: -2.4, y: 1.5}
  - {x: -2.4, y: 0}
  - {x: -2.6, y: 0}
  - {x: -2.4, y: 1.5}
  - {x: -2.6, y: 1.625}
  - {x: -2.4, y: 1.5}
  - {x: -2.4, y: 1.625}
  - {x: -2.6, y: 1.625}
  - {x: -2.6, y: 0}
  - {x: -2.8, y: 0}
  - {x: -2.6, y: 1.625}
  - {x: -2.8, y: 1.75}
  - {x: -2.6, y: 1.625}
  - {x: -2.6, y: 1.75}
  - {x: -2.8, y: 1.75}
  - {x: -2.8, y: 0}
  - {x: -3, y: 0}
  - {x: -2.8, y: 1.75}
  - {x: -3, y: 1.875}
  - {x: -2.8, y: 1.75}
  - {x: -2.8, y: 1.875}
  - {x: -3, y: 1.875}
  - {x: -3, y: 0}
  - {x: -3.2, y: 0}
  - {x: -3, y: 1.875}
  - {x: -3.2, y: 2}
  - {x: -3, y: 1.875}
  - {x: -3, y: 2}
  - {x: -3.2, y: 2}
  - {x: -3.2, y: 0}
  - {x: -3.4, y: 0}
  - {x: -3.2, y: 2}
  - {x: -3.4, y: 2.125}
  - {x: -3.2, y: 2}
  - {x: -3.2, y: 2.125}
  - {x: -3.4, y: 2.125}
  - {x: -3.4, y: 0}
  - {x: -3.6, y: 0}
  - {x: -3.4, y: 2.125}
  - {x: -3.6, y: 2.25}
  - {x: -3.4, y: 2.125}
  - {x: -3.4, y: 2.25}
  - {x: -3.6, y: 2.25}
  - {x: -3.6, y: 0}
  - {x: -3.8, y: 0}
  - {x: -3.6, y: 2.25}
  - {x: -3.8, y: 2.375}
  - {x: -3.6, y: 2.25}
  - {x: -3.6, y: 2.375}
  - {x: -3.8, y: 2.375}
  - {x: -3.8, y: 0}
  - {x: -4, y: 0}
  - {x: -3.8, y: 2.375}
  - {x: -4, y: 2.5}
  - {x: -3.8, y: 2.375}
  - {x: -3.8, y: 2.5}
  - {x: -4, y: 2.5}
  - {x: 0, y: 0}
  - {x: 0.2, y: 0}
  - {x: 0, y: 0.125}
  - {x: 0.2, y: 0.125}
  - {x: 0.2, y: 0}
  - {x: 0.4, y: 0}
  - {x: 0.2, y: 0.125}
  - {x: 0.4, y: 0.25}
  - {x: 0.2, y: 0.125}
  - {x: 0.2, y: 0.25}
  - {x: 0.4, y: 0.25}
  - {x: 0.4, y: 0}
  - {x: 0.6, y: 0}
  - {x: 0.4, y: 0.25}
  - {x: 0.6, y: 0.375}
  - {x: 0.4, y: 0.25}
  - {x: 0.4, y: 0.375}
  - {x: 0.6, y: 0.375}
  - {x: 0.6, y: 0}
  - {x: 0.8, y: 0}
  - {x: 0.6, y: 0.375}
  - {x: 0.8, y: 0.5}
  - {x: 0.6, y: 0.375}
  - {x: 0.6, y: 0.5}
  - {x: 0.8, y: 0.5}
  - {x: 0.8, y: 0}
  - {x: 1, y: 0}
  - {x: 0.8, y: 0.5}
  - {x: 1, y: 0.625}
  - {x: 0.8, y: 0.5}
  - {x: 0.8, y: 0.625}
  - {x: 1, y: 0.625}
  - {x: 1, y: 0}
  - {x: 1.2, y: 0}
  - {x: 1, y: 0.625}
  - {x: 1.2, y: 0.75}
  - {x: 1, y: 0.625}
  - {x: 1, y: 0.75}
  - {x: 1.2, y: 0.75}
  - {x: 1.2, y: 0}
  - {x: 1.4, y: 0}
  - {x: 1.2, y: 0.75}
  - {x: 1.4, y: 0.875}
  - {x: 1.2, y: 0.75}
  - {x: 1.2, y: 0.875}
  - {x: 1.4, y: 0.875}
  - {x: 1.4, y: 0}
  - {x: 1.6, y: 0}
  - {x: 1.4, y: 0.875}
  - {x: 1.6, y: 1}
  - {x: 1.4, y: 0.875}
  - {x: 1.4, y: 1}
  - {x: 1.6, y: 1}
  - {x: 1.6, y: 0}
  - {x: 1.8, y: 0}
  - {x: 1.6, y: 1}
  - {x: 1.8, y: 1.125}
  - {x: 1.6, y: 1}
  - {x: 1.6, y: 1.125}
  - {x: 1.8, y: 1.125}
  - {x: 1.8, y: 0}
  - {x: 2, y: 0}
  - {x: 1.8, y: 1.125}
  - {x: 2, y: 1.25}
  - {x: 1.8, y: 1.125}
  - {x: 1.8, y: 1.25}
  - {x: 2, y: 1.25}
  - {x: 2, y: 0}
  - {x: 2.2, y: 0}
  - {x: 2, y: 1.25}
  - {x: 2.2, y: 1.375}
  - {x: 2, y: 1.25}
  - {x: 2, y: 1.375}
  - {x: 2.2, y: 1.375}
  - {x: 2.2, y: 0}
  - {x: 2.4, y: 0}
  - {x: 2.2, y: 1.375}
  - {x: 2.4, y: 1.5}
  - {x: 2.2, y: 1.375}
  - {x: 2.2, y: 1.5}
  - {x: 2.4, y: 1.5}
  - {x: 2.4, y: 0}
  - {x: 2.6, y: 0}
  - {x: 2.4, y: 1.5}
  - {x: 2.6, y: 1.625}
  - {x: 2.4, y: 1.5}
  - {x: 2.4, y: 1.625}
  - {x: 2.6, y: 1.625}
  - {x: 2.6, y: 0}
  - {x: 2.8, y: 0}
  - {x: 2.6, y: 1.625}
  - {x: 2.8, y: 1.75}
  - {x: 2.6, y: 1.625}
  - {x: 2.6, y: 1.75}
  - {x: 2.8, y: 1.75}
  - {x: 2.8, y: 0}
  - {x: 3, y: 0}
  - {x: 2.8, y: 1.75}
  - {x: 3, y: 1.875}
  - {x: 2.8, y: 1.75}
  - {x: 2.8, y: 1.875}
  - {x: 3, y: 1.875}
  - {x: 3, y: 0}
  - {x: 3.2, y: 0}
  - {x: 3, y: 1.875}
  - {x: 3.2, y: 2}
  - {x: 3, y: 1.875}
  - {x: 3, y: 2}
  - {x: 3.2, y: 2}
  - {x: 3.2, y: 0}
  - {x: 3.4, y: 0}
  - {x: 3.2, y: 2}
  - {x: 3.4, y: 2.125}
  - {x: 3.2, y: 2}
  - {x: 3.2, y: 2.125}
  - {x: 3.4, y: 2.125}
  - {x: 3.4, y: 0}
  - {x: 3.6, y: 0}
  - {x: 3.4, y: 2.125}
  - {x: 3.6, y: 2.25}
  - {x: 3.4, y: 2.125}
  - {x: 3.4, y: 2.25}
  - {x: 3.6, y: 2.25}
  - {x: 3.6, y: 0}
  - {x: 3.8, y: 0}
  - {x: 3.6, y: 2.25}
  - {x: 3.8, y: 2.375}
  - {x: 3.6, y: 2.25}
  - {x: 3.6, y: 2.375}
  - {x: 3.8, y: 2.375}
  - {x: 3.8, y: 0}
  - {x: 4, y: 0}
  - {x: 3.8, y: 2.375}
  - {x: 4, y: 2.5}
  - {x: 3.8, y: 2.375}
  - {x: 3.8, y: 2.5}
  - {x: 4, y: 2.5}
  - {x: 4, y: 0}
  - {x: 0, y: 0}
  - {x: 4, y: 2.5}
  - {x: 0, y: 2.5}
  m_Textures2: []
  m_Textures3: []
  m_Tangents:
  - {x: 1, y: 0, z: 0, w: -1}
  - {x: 1, y: 0, z: 0, w: -1}
  - {x: 1, y: 0, z: 0, w: -1}
  - {x: 1, y: 0, z: 0, w: -1}
  - {x: 1, y: 0, z: 0, w: -1}
  - {x: 1, y: 0, z: 0, w: -1}
  - {x: 1, y: 0, z: 0, w: -1}
  - {x: 1, y: 0, z: 0, w: -1}
  - {x: 1, y: 0, z: 0, w: -1}
  - {x: 1, y: 0, z: 0, w: -1}
  - {x: 1, y: 0, z: 0, w: -1}
  - {x: 1, y: 0, z: 0, w: -1}
  - {x: 1, y: 0, z: 0, w: -1}
  - {x: 1, y: 0, z: 0, w: -1}
  - {x: 1, y: 0, z: 0, w: -1}
  - {x: 1, y: 0, z: 0, w: -1}
  - {x: 1, y: 0, z: 0, w: -1}
  - {x: 1, y: 0, z: 0, w: -1}
  - {x: 1, y: 0, z: 0, w: -1}
  - {x: 1, y: 0, z: 0, w: -1}
  - {x: 1, y: 0, z: 0, w: -1}
  - {x: 1, y: 0, z: 0, w: -1}
  - {x: 1, y: 0, z: 0, w: -1}
  - {x: 1, y: 0, z: 0, w: -1}
  - {x: 1, y: 0, z: 0, w: -1}
  - {x: 1, y: 0, z: 0, w: -1}
  - {x: 1, y: 0, z: 0, w: -1}
  - {x: 1, y: 0, z: 0, w: -1}
  - {x: 1, y: 0, z: 0, w: -1}
  - {x: 1, y: 0, z: 0, w: -1}
  - {x: 1, y: 0, z: 0, w: -1}
  - {x: 1, y: 0, z: 0, w: -1}
  - {x: 1, y: 0, z: 0, w: -1}
  - {x: 1, y: 0, z: 0, w: -1}
  - {x: 1, y: 0, z: 0, w: -1}
  - {x: 1, y: 0, z: 0, w: -1}
  - {x: 1, y: 0, z: 0, w: -1}
  - {x: 1, y: 0, z: 0, w: -1}
  - {x: 1, y: 0, z: 0, w: -1}
  - {x: 1, y: 0, z: 0, w: -1}
  - {x: 1, y: 0, z: 0, w: -1}
  - {x: 1, y: 0, z: 0, w: -1}
  - {x: 1, y: 0, z: 0, w: -1}
  - {x: 1, y: 0, z: 0, w: -1}
  - {x: 1, y: 0, z: 0, w: -1}
  - {x: 1, y: 0, z: 0, w: -1}
  - {x: 1, y: 0, z: 0, w: -1}
  - {x: 1, y: 0, z: 0, w: -1}
  - {x: 1, y: 0, z: 0, w: -1}
  - {x: 1, y: 0, z: 0, w: -1}
  - {x: 1, y: 0, z: 0, w: -1}
  - {x: 1, y: 0, z: 0, w: -1}
  - {x: 1, y: 0, z: 0, w: -1}
  - {x: 1, y: 0, z: 0, w: -1}
  - {x: 1, y: 0, z: 0, w: -1}
  - {x: 1, y: 0, z: 0, w: -1}
  - {x: 1, y: 0, z: 0, w: -1}
  - {x: 1, y: 0, z: 0, w: -1}
  - {x: 1, y: 0, z: 0, w: -1}
  - {x: 1, y: 0, z: 0, w: -1}
  - {x: 1, y: 0, z: 0, w: -1}
  - {x: 1, y: 0, z: 0, w: -1}
  - {x: 1, y: 0, z: 0, w: -1}
  - {x: 1, y: 0, z: 0, w: -1}
  - {x: 1, y: 0, z: 0, w: -1}
  - {x: 1, y: 0, z: 0, w: -1}
  - {x: 1, y: 0, z: 0, w: -1}
  - {x: 1, y: 0, z: 0, w: -1}
  - {x: 1, y: 0, z: 0, w: -1}
  - {x: 1, y: 0, z: 0, w: -1}
  - {x: 1, y: 0, z: 0, w: -1}
  - {x: 1, y: 0, z: 0, w: -1}
  - {x: 1, y: 0, z: 0, w: -1}
  - {x: 1, y: 0, z: 0, w: -1}
  - {x: 1, y: 0, z: 0, w: -1}
  - {x: 1, y: 0, z: 0, w: -1}
  - {x: 1, y: 0, z: 0, w: -1}
  - {x: 1, y: 0, z: 0, w: -1}
  - {x: 1, y: 0, z: 0, w: -1}
  - {x: 1, y: 0, z: 0, w: -1}
  - {x: 1, y: 0, z: 0, w: -1}
  - {x: 1, y: 0, z: 0, w: -1}
  - {x: 1, y: 0, z: 0, w: -1}
  - {x: 1, y: 0, z: 0, w: -1}
  - {x: 1, y: 0, z: 0, w: -1}
  - {x: 1, y: 0, z: 0, w: -1}
  - {x: 1, y: 0, z: 0, w: -1}
  - {x: 1, y: 0, z: 0, w: -1}
  - {x: 1, y: 0, z: 0, w: -1}
  - {x: 1, y: 0, z: 0, w: -1}
  - {x: 1, y: 0, z: 0, w: -1}
  - {x: 1, y: 0, z: 0, w: -1}
  - {x: 1, y: 0, z: 0, w: -1}
  - {x: 1, y: 0, z: 0, w: -1}
  - {x: 1, y: 0, z: 0, w: -1}
  - {x: 1, y: 0, z: 0, w: -1}
  - {x: 1, y: 0, z: 0, w: -1}
  - {x: 1, y: 0, z: 0, w: -1}
  - {x: 1, y: 0, z: 0, w: -1}
  - {x: 1, y: 0, z: 0, w: -1}
  - {x: 1, y: 0, z: 0, w: -1}
  - {x: 1, y: 0, z: 0, w: -1}
  - {x: 1, y: 0, z: 0, w: -1}
  - {x: 1, y: 0, z: 0, w: -1}
  - {x: 1, y: 0, z: 0, w: -1}
  - {x: 1, y: 0, z: 0, w: -1}
  - {x: 1, y: 0, z: 0, w: -1}
  - {x: 1, y: 0, z: 0, w: -1}
  - {x: 1, y: 0, z: 0, w: -1}
  - {x: 1, y: 0, z: 0, w: -1}
  - {x: 1, y: 0, z: 0, w: -1}
  - {x: 1, y: 0, z: 0, w: -1}
  - {x: 1, y: 0, z: 0, w: -1}
  - {x: 1, y: 0, z: 0, w: -1}
  - {x: 1, y: 0, z: 0, w: -1}
  - {x: 1, y: 0, z: 0, w: -1}
  - {x: 1, y: 0, z: 0, w: -1}
  - {x: 1, y: 0, z: 0, w: -1}
  - {x: 1, y: 0, z: 0, w: -1}
  - {x: 1, y: 0, z: 0, w: -1}
  - {x: 1, y: 0, z: 0, w: -1}
  - {x: 1, y: 0, z: 0, w: -1}
  - {x: 1, y: 0, z: 0, w: -1}
  - {x: 1, y: 0, z: 0, w: -1}
  - {x: 1, y: 0, z: 0, w: -1}
  - {x: 1, y: 0, z: 0, w: -1}
  - {x: 1, y: 0, z: 0, w: -1}
  - {x: 1, y: 0, z: 0, w: -1}
  - {x: 1, y: 0, z: 0, w: -1}
  - {x: 1, y: 0, z: 0, w: -1}
  - {x: 1, y: 0, z: 0, w: -1}
  - {x: 1, y: 0, z: 0, w: -1}
  - {x: 1, y: 0, z: 0, w: -1}
  - {x: 1, y: 0, z: 0, w: -1}
  - {x: 1, y: 0, z: 0, w: -1}
  - {x: 1, y: 0, z: 0, w: -1}
  - {x: 1, y: 0, z: 0, w: -1}
  - {x: 1, y: 0, z: 0, w: -1}
  - {x: 1, y: 0, z: 0, w: -1}
  - {x: 1, y: 0, z: 0, w: -1}
  - {x: 1, y: 0, z: 0, w: -1}
  - {x: 1, y: 0, z: 0, w: -1}
  - {x: 1, y: 0, z: 0, w: -1}
  - {x: 1, y: 0, z: 0, w: -1}
  - {x: 1, y: 0, z: 0, w: -1}
  - {x: 1, y: 0, z: 0, w: -1}
  - {x: 1, y: 0, z: 0, w: -1}
  - {x: 1, y: 0, z: 0, w: -1}
  - {x: 1, y: 0, z: 0, w: -1}
  - {x: 1, y: 0, z: 0, w: -1}
  - {x: 1, y: 0, z: 0, w: -1}
  - {x: 1, y: 0, z: 0, w: -1}
  - {x: 1, y: 0, z: 0, w: -1}
  - {x: 1, y: 0, z: 0, w: -1}
  - {x: 1, y: 0, z: 0, w: -1}
  - {x: 1, y: 0, z: 0, w: -1}
  - {x: 1, y: 0, z: 0, w: -1}
  - {x: 1, y: 0, z: 0, w: -1}
  - {x: 1, y: 0, z: 0, w: -1}
  - {x: 1, y: 0, z: 0, w: -1}
  - {x: 0, y: 0, z: -1, w: -1}
  - {x: 0, y: 0, z: -1, w: -1}
  - {x: 0, y: 0, z: -1, w: -1}
  - {x: 0, y: 0, z: -1, w: -1}
  - {x: 0, y: 0, z: -1, w: -1}
  - {x: 0, y: 0, z: -1, w: -1}
  - {x: 0, y: 0, z: -1, w: -1}
  - {x: 0, y: 0, z: -1, w: -1}
  - {x: 0, y: 0, z: -1, w: -1}
  - {x: 0, y: 0, z: -1, w: -1}
  - {x: 0, y: 0, z: -1, w: -1}
  - {x: 0, y: 0, z: -1, w: -1}
  - {x: 0, y: 0, z: -1, w: -1}
  - {x: 0, y: 0, z: -1, w: -1}
  - {x: 0, y: 0, z: -1, w: -1}
  - {x: 0, y: 0, z: -1, w: -1}
  - {x: 0, y: 0, z: -1, w: -1}
  - {x: 0, y: 0, z: -1, w: -1}
  - {x: 0, y: 0, z: -1, w: -1}
  - {x: 0, y: 0, z: -1, w: -1}
  - {x: 0, y: 0, z: -1, w: -1}
  - {x: 0, y: 0, z: -1, w: -1}
  - {x: 0, y: 0, z: -1, w: -1}
  - {x: 0, y: 0, z: -1, w: -1}
  - {x: 0, y: 0, z: -1, w: -1}
  - {x: 0, y: 0, z: -1, w: -1}
  - {x: 0, y: 0, z: -1, w: -1}
  - {x: 0, y: 0, z: -1, w: -1}
  - {x: 0, y: 0, z: -1, w: -1}
  - {x: 0, y: 0, z: -1, w: -1}
  - {x: 0, y: 0, z: -1, w: -1}
  - {x: 0, y: 0, z: -1, w: -1}
  - {x: 0, y: 0, z: -1, w: -1}
  - {x: 0, y: 0, z: -1, w: -1}
  - {x: 0, y: 0, z: -1, w: -1}
  - {x: 0, y: 0, z: -1, w: -1}
  - {x: 0, y: 0, z: -1, w: -1}
  - {x: 0, y: 0, z: -1, w: -1}
  - {x: 0, y: 0, z: -1, w: -1}
  - {x: 0, y: 0, z: -1, w: -1}
  - {x: 0, y: 0, z: -1, w: -1}
  - {x: 0, y: 0, z: -1, w: -1}
  - {x: 0, y: 0, z: -1, w: -1}
  - {x: 0, y: 0, z: -1, w: -1}
  - {x: 0, y: 0, z: -1, w: -1}
  - {x: 0, y: 0, z: -1, w: -1}
  - {x: 0, y: 0, z: -1, w: -1}
  - {x: 0, y: 0, z: -1, w: -1}
  - {x: 0, y: 0, z: -1, w: -1}
  - {x: 0, y: 0, z: -1, w: -1}
  - {x: 0, y: 0, z: -1, w: -1}
  - {x: 0, y: 0, z: -1, w: -1}
  - {x: 0, y: 0, z: -1, w: -1}
  - {x: 0, y: 0, z: -1, w: -1}
  - {x: 0, y: 0, z: -1, w: -1}
  - {x: 0, y: 0, z: -1, w: -1}
  - {x: 0, y: 0, z: -1, w: -1}
  - {x: 0, y: 0, z: -1, w: -1}
  - {x: 0, y: 0, z: -1, w: -1}
  - {x: 0, y: 0, z: -1, w: -1}
  - {x: 0, y: 0, z: -1, w: -1}
  - {x: 0, y: 0, z: -1, w: -1}
  - {x: 0, y: 0, z: -1, w: -1}
  - {x: 0, y: 0, z: -1, w: -1}
  - {x: 0, y: 0, z: -1, w: -1}
  - {x: 0, y: 0, z: -1, w: -1}
  - {x: 0, y: 0, z: -1, w: -1}
  - {x: 0, y: 0, z: -1, w: -1}
  - {x: 0, y: 0, z: -1, w: -1}
  - {x: 0, y: 0, z: -1, w: -1}
  - {x: 0, y: 0, z: -1, w: -1}
  - {x: 0, y: 0, z: -1, w: -1}
  - {x: 0, y: 0, z: -1, w: -1}
  - {x: 0, y: 0, z: -1, w: -1}
  - {x: 0, y: 0, z: -1, w: -1}
  - {x: 0, y: 0, z: -1, w: -1}
  - {x: 0, y: 0, z: -1, w: -1}
  - {x: 0, y: 0, z: -1, w: -1}
  - {x: 0, y: 0, z: -1, w: -1}
  - {x: 0, y: 0, z: -1, w: -1}
  - {x: 0, y: 0, z: -1, w: -1}
  - {x: 0, y: 0, z: -1, w: -1}
  - {x: 0, y: 0, z: -1, w: -1}
  - {x: 0, y: 0, z: -1, w: -1}
  - {x: 0, y: 0, z: -1, w: -1}
  - {x: 0, y: 0, z: -1, w: -1}
  - {x: 0, y: 0, z: -1, w: -1}
  - {x: 0, y: 0, z: -1, w: -1}
  - {x: 0, y: 0, z: -1, w: -1}
  - {x: 0, y: 0, z: -1, w: -1}
  - {x: 0, y: 0, z: -1, w: -1}
  - {x: 0, y: 0, z: -1, w: -1}
  - {x: 0, y: 0, z: -1, w: -1}
  - {x: 0, y: 0, z: -1, w: -1}
  - {x: 0, y: 0, z: -1, w: -1}
  - {x: 0, y: 0, z: -1, w: -1}
  - {x: 0, y: 0, z: -1, w: -1}
  - {x: 0, y: 0, z: -1, w: -1}
  - {x: 0, y: 0, z: -1, w: -1}
  - {x: 0, y: 0, z: -1, w: -1}
  - {x: 0, y: 0, z: -1, w: -1}
  - {x: 0, y: 0, z: -1, w: -1}
  - {x: 0, y: 0, z: -1, w: -1}
  - {x: 0, y: 0, z: -1, w: -1}
  - {x: 0, y: 0, z: -1, w: -1}
  - {x: 0, y: 0, z: -1, w: -1}
  - {x: 0, y: 0, z: -1, w: -1}
  - {x: 0, y: 0, z: -1, w: -1}
  - {x: 0, y: 0, z: -1, w: -1}
  - {x: 0, y: 0, z: -1, w: -1}
  - {x: 0, y: 0, z: -1, w: -1}
  - {x: 0, y: 0, z: -1, w: -1}
  - {x: 0, y: 0, z: -1, w: -1}
  - {x: 0, y: 0, z: -1, w: -1}
  - {x: 0, y: 0, z: -1, w: -1}
  - {x: 0, y: 0, z: -1, w: -1}
  - {x: 0, y: 0, z: -1, w: -1}
  - {x: 0, y: 0, z: -1, w: -1}
  - {x: 0, y: 0, z: -1, w: -1}
  - {x: 0, y: 0, z: -1, w: -1}
  - {x: 0, y: 0, z: -1, w: -1}
  - {x: 0, y: 0, z: -1, w: -1}
  - {x: 0, y: 0, z: -1, w: -1}
  - {x: 0, y: 0, z: -1, w: -1}
  - {x: 0, y: 0, z: -1, w: -1}
  - {x: 0, y: 0, z: -1, w: -1}
  - {x: 0, y: 0, z: -1, w: -1}
  - {x: 0, y: 0, z: -1, w: -1}
  - {x: 0, y: 0, z: -1, w: -1}
  - {x: 0, y: 0, z: -1, w: -1}
  - {x: 0, y: 0, z: -1, w: -1}
  - {x: 0, y: 0, z: -1, w: -1}
  - {x: 0, y: 0, z: -1, w: -1}
  - {x: 0, y: 0, z: -1, w: -1}
  - {x: 0, y: 0, z: -1, w: -1}
  - {x: 0, y: 0, z: -1, w: -1}
  - {x: 0, y: 0, z: -1, w: -1}
  - {x: 0, y: 0, z: 1, w: -1}
  - {x: 0, y: 0, z: 1, w: -1}
  - {x: 0, y: 0, z: 1, w: -1}
  - {x: 0, y: 0, z: 1, w: -1}
  - {x: 0, y: 0, z: 1, w: -1}
  - {x: 0, y: 0, z: 1, w: -1}
  - {x: 0, y: 0, z: 1, w: -1}
  - {x: 0, y: 0, z: 1, w: -1}
  - {x: 0, y: 0, z: 1, w: -1}
  - {x: 0, y: 0, z: 1, w: -1}
  - {x: 0, y: 0, z: 1, w: -1}
  - {x: 0, y: 0, z: 1, w: -1}
  - {x: 0, y: 0, z: 1, w: -1}
  - {x: 0, y: 0, z: 1, w: -1}
  - {x: 0, y: 0, z: 1, w: -1}
  - {x: 0, y: 0, z: 1, w: -1}
  - {x: 0, y: 0, z: 1, w: -1}
  - {x: 0, y: 0, z: 1, w: -1}
  - {x: 0, y: 0, z: 1, w: -1}
  - {x: 0, y: 0, z: 1, w: -1}
  - {x: 0, y: 0, z: 1, w: -1}
  - {x: 0, y: 0, z: 1, w: -1}
  - {x: 0, y: 0, z: 1, w: -1}
  - {x: 0, y: 0, z: 1, w: -1}
  - {x: 0, y: 0, z: 1, w: -1}
  - {x: 0, y: 0, z: 1, w: -1}
  - {x: 0, y: 0, z: 1, w: -1}
  - {x: 0, y: 0, z: 1, w: -1}
  - {x: 0, y: 0, z: 1, w: -1}
  - {x: 0, y: 0, z: 1, w: -1}
  - {x: 0, y: 0, z: 1, w: -1}
  - {x: 0, y: 0, z: 1, w: -1}
  - {x: 0, y: 0, z: 1, w: -1}
  - {x: 0, y: 0, z: 1, w: -1}
  - {x: 0, y: 0, z: 1, w: -1}
  - {x: 0, y: 0, z: 1, w: -1}
  - {x: 0, y: 0, z: 1, w: -1}
  - {x: 0, y: 0, z: 1, w: -1}
  - {x: 0, y: 0, z: 1, w: -1}
  - {x: 0, y: 0, z: 1, w: -1}
  - {x: 0, y: 0, z: 1, w: -1}
  - {x: 0, y: 0, z: 1, w: -1}
  - {x: 0, y: 0, z: 1, w: -1}
  - {x: 0, y: 0, z: 1, w: -1}
  - {x: 0, y: 0, z: 1, w: -1}
  - {x: 0, y: 0, z: 1, w: -1}
  - {x: 0, y: 0, z: 1, w: -1}
  - {x: 0, y: 0, z: 1, w: -1}
  - {x: 0, y: 0, z: 1, w: -1}
  - {x: 0, y: 0, z: 1, w: -1}
  - {x: 0, y: 0, z: 1, w: -1}
  - {x: 0, y: 0, z: 1, w: -1}
  - {x: 0, y: 0, z: 1, w: -1}
  - {x: 0, y: 0, z: 1, w: -1}
  - {x: 0, y: 0, z: 1, w: -1}
  - {x: 0, y: 0, z: 1, w: -1}
  - {x: 0, y: 0, z: 1, w: -1}
  - {x: 0, y: 0, z: 1, w: -1}
  - {x: 0, y: 0, z: 1, w: -1}
  - {x: 0, y: 0, z: 1, w: -1}
  - {x: 0, y: 0, z: 1, w: -1}
  - {x: 0, y: 0, z: 1, w: -1}
  - {x: 0, y: 0, z: 1, w: -1}
  - {x: 0, y: 0, z: 1, w: -1}
  - {x: 0, y: 0, z: 1, w: -1}
  - {x: 0, y: 0, z: 1, w: -1}
  - {x: 0, y: 0, z: 1, w: -1}
  - {x: 0, y: 0, z: 1, w: -1}
  - {x: 0, y: 0, z: 1, w: -1}
  - {x: 0, y: 0, z: 1, w: -1}
  - {x: 0, y: 0, z: 1, w: -1}
  - {x: 0, y: 0, z: 1, w: -1}
  - {x: 0, y: 0, z: 1, w: -1}
  - {x: 0, y: 0, z: 1, w: -1}
  - {x: 0, y: 0, z: 1, w: -1}
  - {x: 0, y: 0, z: 1, w: -1}
  - {x: 0, y: 0, z: 1, w: -1}
  - {x: 0, y: 0, z: 1, w: -1}
  - {x: 0, y: 0, z: 1, w: -1}
  - {x: 0, y: 0, z: 1, w: -1}
  - {x: 0, y: 0, z: 1, w: -1}
  - {x: 0, y: 0, z: 1, w: -1}
  - {x: 0, y: 0, z: 1, w: -1}
  - {x: 0, y: 0, z: 1, w: -1}
  - {x: 0, y: 0, z: 1, w: -1}
  - {x: 0, y: 0, z: 1, w: -1}
  - {x: 0, y: 0, z: 1, w: -1}
  - {x: 0, y: 0, z: 1, w: -1}
  - {x: 0, y: 0, z: 1, w: -1}
  - {x: 0, y: 0, z: 1, w: -1}
  - {x: 0, y: 0, z: 1, w: -1}
  - {x: 0, y: 0, z: 1, w: -1}
  - {x: 0, y: 0, z: 1, w: -1}
  - {x: 0, y: 0, z: 1, w: -1}
  - {x: 0, y: 0, z: 1, w: -1}
  - {x: 0, y: 0, z: 1, w: -1}
  - {x: 0, y: 0, z: 1, w: -1}
  - {x: 0, y: 0, z: 1, w: -1}
  - {x: 0, y: 0, z: 1, w: -1}
  - {x: 0, y: 0, z: 1, w: -1}
  - {x: 0, y: 0, z: 1, w: -1}
  - {x: 0, y: 0, z: 1, w: -1}
  - {x: 0, y: 0, z: 1, w: -1}
  - {x: 0, y: 0, z: 1, w: -1}
  - {x: 0, y: 0, z: 1, w: -1}
  - {x: 0, y: 0, z: 1, w: -1}
  - {x: 0, y: 0, z: 1, w: -1}
  - {x: 0, y: 0, z: 1, w: -1}
  - {x: 0, y: 0, z: 1, w: -1}
  - {x: 0, y: 0, z: 1, w: -1}
  - {x: 0, y: 0, z: 1, w: -1}
  - {x: 0, y: 0, z: 1, w: -1}
  - {x: 0, y: 0, z: 1, w: -1}
  - {x: 0, y: 0, z: 1, w: -1}
  - {x: 0, y: 0, z: 1, w: -1}
  - {x: 0, y: 0, z: 1, w: -1}
  - {x: 0, y: 0, z: 1, w: -1}
  - {x: 0, y: 0, z: 1, w: -1}
  - {x: 0, y: 0, z: 1, w: -1}
  - {x: 0, y: 0, z: 1, w: -1}
  - {x: 0, y: 0, z: 1, w: -1}
  - {x: 0, y: 0, z: 1, w: -1}
  - {x: 0, y: 0, z: 1, w: -1}
  - {x: 0, y: 0, z: 1, w: -1}
  - {x: 0, y: 0, z: 1, w: -1}
  - {x: 0, y: 0, z: 1, w: -1}
  - {x: 0, y: 0, z: 1, w: -1}
  - {x: 0, y: 0, z: 1, w: -1}
  - {x: 0, y: 0, z: 1, w: -1}
  - {x: 0, y: 0, z: 1, w: -1}
  - {x: 0, y: 0, z: 1, w: -1}
  - {x: 0, y: 0, z: 1, w: -1}
  - {x: 0, y: 0, z: 1, w: -1}
  - {x: 0, y: 0, z: 1, w: -1}
  - {x: 0, y: 0, z: 1, w: -1}
  - {x: 0, y: 0, z: 1, w: -1}
  - {x: 0, y: 0, z: 1, w: -1}
  - {x: -1, y: 0, z: 0, w: -1}
  - {x: -1, y: 0, z: 0, w: -1}
  - {x: -1, y: 0, z: 0, w: -1}
  - {x: -1, y: 0, z: 0, w: -1}
  m_Colors: []
  m_UnwrapParameters:
    m_HardAngle: 88
    m_PackMargin: 20
    m_AngleError: 8
    m_AreaError: 15
  m_PreserveMeshAssetOnDestroy: 0
  assetGuid: 
  m_Mesh: {fileID: 0}
  m_IsSelectable: 1
  m_SelectedFaces: 
  m_SelectedEdges: []
  m_SelectedVertices: 
--- !u!23 &8967551926106754636
MeshRenderer:
  m_ObjectHideFlags: 0
  m_CorrespondingSourceObject: {fileID: 0}
  m_PrefabInstance: {fileID: 0}
  m_PrefabAsset: {fileID: 0}
  m_GameObject: {fileID: 8967551926106754639}
  m_Enabled: 1
  m_CastShadows: 1
  m_ReceiveShadows: 1
  m_DynamicOccludee: 1
  m_MotionVectors: 1
  m_LightProbeUsage: 1
  m_ReflectionProbeUsage: 1
  m_RayTracingMode: 2
  m_RayTraceProcedural: 0
  m_RenderingLayerMask: 1
  m_RendererPriority: 0
  m_Materials:
  - {fileID: 2100000, guid: ddd3fc8884d073241aacd72c21c26f40, type: 2}
  m_StaticBatchInfo:
    firstSubMesh: 0
    subMeshCount: 0
  m_StaticBatchRoot: {fileID: 0}
  m_ProbeAnchor: {fileID: 0}
  m_LightProbeVolumeOverride: {fileID: 0}
  m_ScaleInLightmap: 1
  m_ReceiveGI: 1
  m_PreserveUVs: 0
  m_IgnoreNormalsForChartDetection: 0
  m_ImportantGI: 0
  m_StitchLightmapSeams: 1
  m_SelectedEditorRenderState: 2
  m_MinimumChartSize: 4
  m_AutoUVMaxDistance: 0.5
  m_AutoUVMaxAngle: 89
  m_LightmapParameters: {fileID: 0}
  m_SortingLayerID: 0
  m_SortingLayer: 0
  m_SortingOrder: 0
  m_AdditionalVertexStreams: {fileID: 0}
--- !u!33 &8967551926106754637
MeshFilter:
  m_ObjectHideFlags: 0
  m_CorrespondingSourceObject: {fileID: 0}
  m_PrefabInstance: {fileID: 0}
  m_PrefabAsset: {fileID: 0}
  m_GameObject: {fileID: 8967551926106754639}
  m_Mesh: {fileID: 0}
--- !u!64 &8967551926106754638
MeshCollider:
  m_ObjectHideFlags: 0
  m_CorrespondingSourceObject: {fileID: 0}
  m_PrefabInstance: {fileID: 0}
  m_PrefabAsset: {fileID: 0}
  m_GameObject: {fileID: 8967551926106754639}
  m_Material: {fileID: 0}
  m_IsTrigger: 0
  m_Enabled: 1
  serializedVersion: 4
  m_Convex: 0
  m_CookingOptions: 30
  m_Mesh: {fileID: 0}
